  -1.0455645e+00
  -1.0455645e+00
  -1.0476790e+00
  -1.0455645e+00
  -1.0455645e+00
  -1.0476790e+00
  -1.0434500e+00
  -1.0434500e+00
  -1.0455645e+00
  -1.0476790e+00
  -1.0455645e+00
  -1.0434500e+00
  -1.0476790e+00
  -1.0476790e+00
  -1.0455645e+00
  -1.0455645e+00
  -1.0455645e+00
  -1.0434500e+00
  -1.0434500e+00
  -1.0455645e+00
  -1.0476790e+00
  -1.0434500e+00
  -1.0455645e+00
  -1.0455645e+00
  -1.0476790e+00
  -1.0455645e+00
  -1.0455645e+00
  -1.0455645e+00
  -1.0434500e+00
  -1.0455645e+00
  -1.0455645e+00
  -1.0455645e+00
  -1.0434500e+00
  -1.0434500e+00
  -1.0455645e+00
  -1.0476790e+00
  -1.0434500e+00
  -1.0455645e+00
  -1.0455645e+00
  -1.0476790e+00
  -1.0455645e+00
  -1.0455645e+00
  -1.0455645e+00
  -1.0434500e+00
  -1.0455645e+00
  -1.0455645e+00
  -1.0476790e+00
  -1.0434500e+00
  -1.0455645e+00
  -1.0455645e+00
  -1.0519080e+00
  -1.0434500e+00
  -1.0455645e+00
  -1.0476790e+00
  -1.0434500e+00
  -1.0455645e+00
  -1.0455645e+00
  -1.0476790e+00
  -1.0434500e+00
  -1.0455645e+00
  -1.0476790e+00
  -1.0476790e+00
  -1.0455645e+00
  -1.0455645e+00
  -1.0455645e+00
  -1.0434500e+00
  -1.0434500e+00
  -1.0455645e+00
  -1.0476790e+00
  -1.0434500e+00
  -1.0455645e+00
  -1.0455645e+00
  -1.0476790e+00
  -1.0434500e+00
  -1.0455645e+00
  -1.0476790e+00
  -1.0434500e+00
  -1.0455645e+00
  -1.0455645e+00
  -1.0476790e+00
  -1.0434500e+00
  -1.0455645e+00
  -1.0476790e+00
  -1.0476790e+00
  -1.0434500e+00
  -1.0455645e+00
  -1.0476790e+00
  -1.0476790e+00
  -1.0434500e+00
  -1.0455645e+00
  -1.0476790e+00
  -1.0434500e+00
  -1.0455645e+00
  -1.0476790e+00
  -1.0455645e+00
  -1.0434500e+00
  -1.0455645e+00
  -1.0455645e+00
  -1.0497935e+00
  -1.0434500e+00
  -1.0455645e+00
  -1.0455645e+00
  -1.0434500e+00
  -1.0455645e+00
  -1.0455645e+00
  -1.0455645e+00
  -1.0434500e+00
  -1.0455645e+00
  -1.0476790e+00
  -1.0476790e+00
  -1.0434500e+00
  -1.0455645e+00
  -1.0476790e+00
  -1.0434500e+00
  -1.0455645e+00
  -1.0476790e+00
  -1.0476790e+00
  -1.0434500e+00
  -1.0455645e+00
  -1.0455645e+00
  -1.0476790e+00
  -1.0455645e+00
  -1.0455645e+00
  -1.0476790e+00
  -1.0434500e+00
  -1.0434500e+00
  -1.0455645e+00
  -1.0476790e+00
  -1.0455645e+00
  -1.0455645e+00
  -1.0455645e+00
  -1.0476790e+00
  -1.0434500e+00
  -1.0455645e+00
  -1.0455645e+00
  -1.0434500e+00
  -1.0434500e+00
  -1.0455645e+00
  -1.0476790e+00
  -1.0434500e+00
  -1.0455645e+00
  -1.0455645e+00
  -1.0476790e+00
  -1.0434500e+00
  -1.0455645e+00
  -1.0455645e+00
  -1.0519080e+00
  -1.0455645e+00
  -1.0455645e+00
  -1.0476790e+00
  -1.0434500e+00
  -1.0455645e+00
  -1.0455645e+00
  -1.0476790e+00
  -1.0434500e+00
  -1.0455645e+00
  -1.0476790e+00
  -1.0476790e+00
  -1.0434500e+00
  -1.0455645e+00
  -1.0455645e+00
  -1.0434500e+00
  -1.0434500e+00
  -1.0455645e+00
  -1.0476790e+00
  -1.0434500e+00
  -1.0455645e+00
  -1.0455645e+00
  -1.0476790e+00
  -1.0455645e+00
  -1.0455645e+00
  -1.0476790e+00
  -1.0434500e+00
  -1.0434500e+00
  -1.0455645e+00
  -1.0476790e+00
  -1.0455645e+00
  -1.0455645e+00
  -1.0455645e+00
  -1.0476790e+00
  -1.0434500e+00
  -1.0455645e+00
  -1.0476790e+00
  -1.0434500e+00
  -1.0455645e+00
  -1.0455645e+00
  -1.0476790e+00
  -1.0434500e+00
  -1.0455645e+00
  -1.0455645e+00
  -1.0476790e+00
  -1.0434500e+00
  -1.0455645e+00
  -1.0455645e+00
  -1.0476790e+00
  -1.0434500e+00
  -1.0455645e+00
  -1.0476790e+00
  -1.0434500e+00
  -1.0455645e+00
  -1.0455645e+00
  -1.0476790e+00
  -1.0434500e+00
  -1.0455645e+00
  -1.0476790e+00
  -1.0519080e+00
  -1.0434500e+00
  -1.0455645e+00
  -1.0476790e+00
  -1.0434500e+00
  -1.0434500e+00
  -1.0455645e+00
  -1.0476790e+00
  -1.0434500e+00
  -1.0455645e+00
  -1.0476790e+00
  -1.0476790e+00
  -1.0434500e+00
  -1.0455645e+00
  -1.0476790e+00
  -1.0434500e+00
  -1.0455645e+00
  -1.0455645e+00
  -1.0476790e+00
  -1.0455645e+00
  -1.0455645e+00
  -1.0455645e+00
  -1.0476790e+00
  -1.0434500e+00
  -1.0455645e+00
  -1.0476790e+00
  -1.0434500e+00
  -1.0455645e+00
  -1.0455645e+00
  -1.0476790e+00
  -1.0434500e+00
  -1.0455645e+00
  -1.0455645e+00
  -1.0476790e+00
  -1.0434500e+00
  -1.0455645e+00
  -1.0476790e+00
  -1.0434500e+00
  -1.0434500e+00
  -1.0455645e+00
  -1.0476790e+00
  -1.0455645e+00
  -1.0455645e+00
  -1.0476790e+00
  -1.0476790e+00
  -1.0434500e+00
  -1.0455645e+00
  -1.0455645e+00
  -1.0434500e+00
  -1.0455645e+00
  -1.0455645e+00
  -1.0476790e+00
  -1.0434500e+00
  -1.0434500e+00
  -1.0455645e+00
  -1.0455645e+00
  -1.0434500e+00
  -1.0455645e+00
  -1.0476790e+00
  -1.0519080e+00
  -1.0434500e+00
  -1.0455645e+00
  -1.0476790e+00
  -1.0434500e+00
  -1.0434500e+00
  -1.0455645e+00
  -1.0455645e+00
  -1.0434500e+00
  -1.0455645e+00
  -1.0476790e+00
  -1.0434500e+00
  -1.0455645e+00
  -1.0455645e+00
  -1.0476790e+00
  -1.0434500e+00
  -1.0455645e+00
  -1.0455645e+00
  -1.0476790e+00
  -1.0455645e+00
  -1.0455645e+00
  -1.0476790e+00
  -1.0497935e+00
  -1.0455645e+00
  -1.0455645e+00
  -1.0476790e+00
  -1.0434500e+00
  -1.0455645e+00
  -1.0455645e+00
  -1.0476790e+00
  -1.0434500e+00
  -1.0455645e+00
  -1.0455645e+00
  -1.0519080e+00
  -1.0434500e+00
  -1.0455645e+00
  -1.0455645e+00
  -1.0434500e+00
  -1.0455645e+00
  -1.0455645e+00
  -1.0476790e+00
  -1.0434500e+00
  -1.0455645e+00
  -1.0455645e+00
  -1.0476790e+00
  -1.0455645e+00
  -1.0455645e+00
  -1.0455645e+00
  -1.0434500e+00
  -1.0455645e+00
  -1.0455645e+00
  -1.0476790e+00
  -1.0455645e+00
  -1.0455645e+00
  -1.0455645e+00
  -1.0476790e+00
  -1.0455645e+00
  -1.0455645e+00
  -1.0455645e+00
  -1.0434500e+00
  -1.0455645e+00
  -1.0476790e+00
  -1.0476790e+00
  -1.0434500e+00
  -1.0455645e+00
  -1.0476790e+00
  -1.0476790e+00
  -1.0434500e+00
  -1.0455645e+00
  -1.0476790e+00
  -1.0434500e+00
  -1.0434500e+00
  -1.0455645e+00
  -1.0455645e+00
  -1.0434500e+00
  -1.0455645e+00
  -1.0455645e+00
  -1.0476790e+00
  -1.0434500e+00
  -1.0455645e+00
  -1.0476790e+00
  -1.0434500e+00
  -1.0455645e+00
  -1.0455645e+00
  -1.0455645e+00
  -1.0455645e+00
  -1.0455645e+00
  -1.0476790e+00
  -1.0476790e+00
  -1.0455645e+00
  -1.0455645e+00
  -1.0455645e+00
  -1.0434500e+00
  -1.0455645e+00
  -1.0455645e+00
  -1.0476790e+00
  -1.0434500e+00
  -1.0455645e+00
  -1.0455645e+00
  -1.0476790e+00
  -1.0455645e+00
  -1.0455645e+00
  -1.0476790e+00
  -1.0434500e+00
  -1.0455645e+00
  -1.0455645e+00
  -1.0455645e+00
  -1.0455645e+00
  -1.0455645e+00
  -1.0455645e+00
  -1.0476790e+00
  -1.0434500e+00
  -1.0455645e+00
  -1.0476790e+00
  -1.0455645e+00
  -1.0455645e+00
  -1.0455645e+00
  -1.0476790e+00
  -1.0455645e+00
  -1.0455645e+00
  -1.0455645e+00
  -1.0476790e+00
  -1.0434500e+00
  -1.0455645e+00
  -1.0455645e+00
  -1.0540224e+00
  -1.0434500e+00
  -1.0455645e+00
  -1.0476790e+00
  -1.0434500e+00
  -1.0455645e+00
  -1.0455645e+00
  -1.0476790e+00
  -1.0455645e+00
  -1.0455645e+00
  -1.0455645e+00
  -1.0434500e+00
  -1.0434500e+00
  -1.0455645e+00
  -1.0476790e+00
  -1.0434500e+00
  -1.0455645e+00
  -1.0455645e+00
  -1.0476790e+00
  -1.0455645e+00
  -1.0455645e+00
  -1.0476790e+00
  -1.0476790e+00
  -1.0455645e+00
  -1.0455645e+00
  -1.0476790e+00
  -1.0434500e+00
  -1.0455645e+00
  -1.0455645e+00
  -1.0455645e+00
  -1.0455645e+00
  -1.0455645e+00
  -1.0476790e+00
  -1.0476790e+00
  -1.0455645e+00
  -1.0476790e+00
  -1.0476790e+00
  -1.0434500e+00
  -1.0455645e+00
  -1.0455645e+00
  -1.0476790e+00
  -1.0434500e+00
  -1.0455645e+00
  -1.0455645e+00
  -1.0476790e+00
  -1.0434500e+00
  -1.0455645e+00
  -1.0476790e+00
  -1.0434500e+00
  -1.0455645e+00
  -1.0455645e+00
  -1.0476790e+00
  -1.0434500e+00
  -1.0455645e+00
  -1.0455645e+00
  -1.0476790e+00
  -1.0434500e+00
  -1.0455645e+00
  -1.0476790e+00
  -1.0455645e+00
  -1.0455645e+00
  -1.0455645e+00
  -1.0476790e+00
  -1.0434500e+00
  -1.0455645e+00
  -1.0455645e+00
  -1.0476790e+00
  -1.0434500e+00
  -1.0455645e+00
  -1.0476790e+00
  -1.0434500e+00
  -1.0455645e+00
  -1.0455645e+00
  -1.0476790e+00
  -1.0434500e+00
  -1.0455645e+00
  -1.0476790e+00
  -1.0476790e+00
  -1.0434500e+00
  -1.0455645e+00
  -1.0455645e+00
  -1.0434500e+00
  -1.0434500e+00
  -1.0455645e+00
  -1.0455645e+00
  -1.0455645e+00
  -1.0455645e+00
  -1.0476790e+00
  -1.0476790e+00
  -1.0434500e+00
  -1.0455645e+00
  -1.0476790e+00
  -1.0434500e+00
  -1.0455645e+00
  -1.0455645e+00
  -1.0476790e+00
  -1.0434500e+00
  -1.0455645e+00
  -1.0455645e+00
  -1.0476790e+00
  -1.0434500e+00
  -1.0455645e+00
  -1.0476790e+00
  -1.0434500e+00
  -1.0434500e+00
  -1.0455645e+00
  -1.0476790e+00
  -1.0434500e+00
  -1.0434500e+00
  -1.0455645e+00
  -1.0476790e+00
  -1.0455645e+00
  -1.0455645e+00
  -1.0476790e+00
  -1.0434500e+00
  -1.0455645e+00
  -1.0455645e+00
  -1.0476790e+00
  -1.0434500e+00
  -1.0455645e+00
  -1.0455645e+00
  -1.0476790e+00
  -1.0455645e+00
  -1.0455645e+00
  -1.0476790e+00
  -1.0519080e+00
  -1.0455645e+00
  -1.0455645e+00
  -1.0476790e+00
  -1.0434500e+00
  -1.0455645e+00
  -1.0455645e+00
  -1.0476790e+00
  -1.0434500e+00
  -1.0434500e+00
  -1.0476790e+00
  -1.0434500e+00
  -1.0455645e+00
  -1.0455645e+00
  -1.0455645e+00
  -1.0434500e+00
  -1.0455645e+00
  -1.0455645e+00
  -1.0476790e+00
  -1.0434500e+00
  -1.0455645e+00
  -1.0455645e+00
  -1.0519080e+00
  -1.0434500e+00
  -1.0455645e+00
  -1.0455645e+00
  -1.0434500e+00
  -1.0455645e+00
  -1.0455645e+00
  -1.0455645e+00
  -1.0434500e+00
  -1.0455645e+00
  -1.0476790e+00
  -1.0497935e+00
  -1.0434500e+00
  -1.0455645e+00
  -1.0455645e+00
  -1.0434500e+00
  -1.0455645e+00
  -1.0455645e+00
  -1.0476790e+00
  -1.0434500e+00
  -1.0455645e+00
  -1.0455645e+00
  -1.0497935e+00
  -1.0455645e+00
  -1.0455645e+00
  -1.0476790e+00
  -1.0434500e+00
  -1.0455645e+00
  -1.0455645e+00
  -1.0476790e+00
  -1.0434500e+00
  -1.0455645e+00
  -1.0455645e+00
  -1.0476790e+00
  -1.0455645e+00
  -1.0455645e+00
  -1.0455645e+00
  -1.0434500e+00
  -1.0455645e+00
  -1.0455645e+00
  -1.0476790e+00
  -1.0455645e+00
  -1.0455645e+00
  -1.0455645e+00
  -1.0476790e+00
  -1.0434500e+00
  -1.0455645e+00
  -1.0476790e+00
  -1.0434500e+00
  -1.0434500e+00
  -1.0455645e+00
  -1.0476790e+00
  -1.0434500e+00
  -1.0455645e+00
  -1.0455645e+00
  -1.0476790e+00
  -1.0434500e+00
  -1.0455645e+00
  -1.0455645e+00
  -1.0434500e+00
  -1.0455645e+00
  -1.0455645e+00
  -1.0455645e+00
  -1.0434500e+00
  -1.0434500e+00
  -1.0476790e+00
  -1.0476790e+00
  -1.0455645e+00
  -1.0455645e+00
  -1.0455645e+00
  -1.0434500e+00
  -1.0455645e+00
  -1.0455645e+00
  -1.0476790e+00
  -1.0434500e+00
  -1.0455645e+00
  -1.0455645e+00
  -1.0476790e+00
  -1.0455645e+00
  -1.0455645e+00
  -1.0455645e+00
  -1.0434500e+00
  -1.0455645e+00
  -1.0455645e+00
  -1.0455645e+00
  -1.0434500e+00
  -1.0434500e+00
  -1.0455645e+00
  -1.0476790e+00
  -1.0434500e+00
  -1.0455645e+00
  -1.0455645e+00
  -1.0434500e+00
  -1.0455645e+00
  -1.0455645e+00
  -1.0476790e+00
  -1.0434500e+00
  -1.0455645e+00
  -1.0455645e+00
  -1.0476790e+00
  -1.0455645e+00
  -1.0455645e+00
  -1.0476790e+00
  -1.0434500e+00
  -1.0455645e+00
  -1.0455645e+00
  -1.0476790e+00
  -1.0434500e+00
  -1.0455645e+00
  -1.0455645e+00
  -1.0476790e+00
  -1.0434500e+00
  -1.0455645e+00
  -1.0476790e+00
  -1.0434500e+00
  -1.0455645e+00
  -1.0455645e+00
  -1.0476790e+00
  -1.0434500e+00
  -1.0455645e+00
  -1.0455645e+00
  -1.0476790e+00
  -1.0434500e+00
  -1.0455645e+00
  -1.0476790e+00
  -1.0434500e+00
  -1.0455645e+00
  -1.0455645e+00
  -1.0476790e+00
  -1.0434500e+00
  -1.0455645e+00
  -1.0455645e+00
  -1.0476790e+00
  -1.0434500e+00
  -1.0455645e+00
  -1.0455645e+00
  -1.0434500e+00
  -1.0455645e+00
  -1.0455645e+00
  -1.0476790e+00
  -1.0434500e+00
  -1.0455645e+00
  -1.0455645e+00
  -1.0476790e+00
  -1.0455645e+00
  -1.0455645e+00
  -1.0476790e+00
  -1.0519080e+00
  -1.0455645e+00
  -1.0455645e+00
  -1.0455645e+00
  -1.0434500e+00
  -1.0455645e+00
  -1.0455645e+00
  -1.0476790e+00
  -1.0434500e+00
  -1.0434500e+00
  -1.0476790e+00
  -1.0497935e+00
  -1.0434500e+00
  -1.0434500e+00
  -1.0476790e+00
  -1.0434500e+00
  -1.0455645e+00
  -1.0455645e+00
  -1.0455645e+00
  -1.0434500e+00
  -1.0455645e+00
  -1.0455645e+00
  -1.0497935e+00
  -1.0434500e+00
  -1.0455645e+00
  -1.0455645e+00
  -1.0434500e+00
  -1.0455645e+00
  -1.0455645e+00
  -1.0476790e+00
  -1.0434500e+00
  -1.0455645e+00
  -1.0455645e+00
  -1.0476790e+00
  -1.0434500e+00
  -1.0455645e+00
  -1.0476790e+00
  -1.0434500e+00
  -1.0455645e+00
  -1.0455645e+00
  -1.0476790e+00
  -1.0434500e+00
  -1.0455645e+00
  -1.0455645e+00
  -1.0476790e+00
  -1.0455645e+00
  -1.0455645e+00
  -1.0476790e+00
  -1.0434500e+00
  -1.0455645e+00
  -1.0476790e+00
  -1.0476790e+00
  -1.0434500e+00
  -1.0455645e+00
  -1.0455645e+00
  -1.0455645e+00
  -1.0455645e+00
  -1.0455645e+00
  -1.0476790e+00
  -1.0434500e+00
  -1.0455645e+00
  -1.0455645e+00
  -1.0476790e+00
  -1.0455645e+00
  -1.0455645e+00
  -1.0455645e+00
  -1.0497935e+00
  -1.0455645e+00
  -1.0455645e+00
  -1.0476790e+00
  -1.0434500e+00
  -1.0455645e+00
  -1.0455645e+00
  -1.0476790e+00
  -1.0434500e+00
  -1.0455645e+00
  -1.0455645e+00
  -1.0476790e+00
  -1.0434500e+00
  -1.0455645e+00
  -1.0476790e+00
  -1.0434500e+00
  -1.0455645e+00
  -1.0455645e+00
  -1.0476790e+00
  -1.0434500e+00
  -1.0455645e+00
  -1.0476790e+00
  -1.0476790e+00
  -1.0434500e+00
  -1.0476790e+00
  -1.0476790e+00
  -1.0434500e+00
  -1.0455645e+00
  -1.0455645e+00
  -1.0476790e+00
  -1.0434500e+00
  -1.0455645e+00
  -1.0455645e+00
  -1.0476790e+00
  -1.0434500e+00
  -1.0455645e+00
  -1.0455645e+00
  -1.0434500e+00
  -1.0434500e+00
  -1.0455645e+00
  -1.0476790e+00
  -1.0434500e+00
  -1.0455645e+00
  -1.0455645e+00
  -1.0497935e+00
  -1.0434500e+00
  -1.0455645e+00
  -1.0455645e+00
  -1.0434500e+00
  -1.0434500e+00
  -1.0455645e+00
  -1.0476790e+00
  -1.0434500e+00
  -1.0455645e+00
  -1.0455645e+00
  -1.0476790e+00
  -1.0434500e+00
  -1.0455645e+00
  -1.0455645e+00
  -1.0434500e+00
  -1.0455645e+00
  -1.0455645e+00
  -1.0455645e+00
  -1.0434500e+00
  -1.0455645e+00
  -1.0455645e+00
  -1.0476790e+00
  -1.0434500e+00
  -1.0455645e+00
  -1.0476790e+00
  -1.0434500e+00
  -1.0455645e+00
  -1.0455645e+00
  -1.0455645e+00
  -1.0434500e+00
  -1.0455645e+00
  -1.0455645e+00
  -1.0476790e+00
  -1.0434500e+00
  -1.0455645e+00
  -1.0476790e+00
  -1.0434500e+00
  -1.0434500e+00
  -1.0455645e+00
  -1.0476790e+00
  -1.0434500e+00
  -1.0455645e+00
  -1.0455645e+00
  -1.0476790e+00
  -1.0434500e+00
  -1.0455645e+00
  -1.0455645e+00
  -1.0519080e+00
  -1.0434500e+00
  -1.0455645e+00
  -1.0476790e+00
  -1.0434500e+00
  -1.0455645e+00
  -1.0455645e+00
  -1.0476790e+00
  -1.0434500e+00
  -1.0455645e+00
  -1.0455645e+00
  -1.0476790e+00
  -1.0455645e+00
  -1.0455645e+00
  -1.0455645e+00
  -1.0434500e+00
  -1.0455645e+00
  -1.0476790e+00
  -1.0476790e+00
  -1.0434500e+00
  -1.0434500e+00
  -1.0476790e+00
  -1.0476790e+00
  -1.0434500e+00
  -1.0455645e+00
  -1.0476790e+00
  -1.0434500e+00
  -1.0455645e+00
  -1.0455645e+00
  -1.0476790e+00
  -1.0434500e+00
  -1.0455645e+00
  -1.0455645e+00
  -1.0476790e+00
  -1.0455645e+00
  -1.0455645e+00
  -1.0476790e+00
  -1.0434500e+00
  -1.0455645e+00
  -1.0476790e+00
  -1.0476790e+00
  -1.0434500e+00
  -1.0455645e+00
  -1.0455645e+00
  -1.0476790e+00
  -1.0434500e+00
  -1.0455645e+00
  -1.0476790e+00
  -1.0434500e+00
  -1.0455645e+00
  -1.0455645e+00
  -1.0476790e+00
  -1.0434500e+00
  -1.0434500e+00
  -1.0455645e+00
  -1.0476790e+00
  -1.0455645e+00
  -1.0455645e+00
  -1.0476790e+00
  -1.0434500e+00
  -1.0455645e+00
  -1.0455645e+00
  -1.0476790e+00
  -1.0455645e+00
  -1.0455645e+00
  -1.0455645e+00
  -1.0476790e+00
  -1.0455645e+00
  -1.0455645e+00
  -1.0476790e+00
  -1.0434500e+00
  -1.0455645e+00
  -1.0455645e+00
  -1.0476790e+00
  -1.0434500e+00
  -1.0455645e+00
  -1.0455645e+00
  -1.0476790e+00
  -1.0434500e+00
  -1.0455645e+00
  -1.0455645e+00
  -1.0455645e+00
  -1.0434500e+00
  -1.0476790e+00
  -1.0476790e+00
  -1.0434500e+00
  -1.0455645e+00
  -1.0455645e+00
  -1.0476790e+00
  -1.0434500e+00
  -1.0455645e+00
  -1.0455645e+00
  -1.0434500e+00
  -1.0455645e+00
  -1.0455645e+00
  -1.0476790e+00
  -1.0455645e+00
  -1.0455645e+00
  -1.0455645e+00
  -1.0476790e+00
  -1.0434500e+00
  -1.0455645e+00
  -1.0476790e+00
  -1.0455645e+00
  -1.0455645e+00
  -1.0476790e+00
  -1.0476790e+00
  -1.0455645e+00
  -1.0455645e+00
  -1.0455645e+00
  -1.0476790e+00
  -1.0434500e+00
  -1.0455645e+00
  -1.0455645e+00
  -1.0434500e+00
  -1.0455645e+00
  -1.0455645e+00
  -1.0476790e+00
  -1.0434500e+00
  -1.0455645e+00
  -1.0455645e+00
  -1.0476790e+00
  -1.0455645e+00
  -1.0455645e+00
  -1.0476790e+00
  -1.0455645e+00
  -1.0455645e+00
  -1.0455645e+00
  -1.0476790e+00
  -1.0434500e+00
  -1.0455645e+00
  -1.0455645e+00
  -1.0476790e+00
  -1.0434500e+00
  -1.0455645e+00
  -1.0476790e+00
  -1.0434500e+00
  -1.0434500e+00
  -1.0455645e+00
  -1.0476790e+00
  -1.0455645e+00
  -1.0455645e+00
  -1.0455645e+00
  -1.0476790e+00
  -1.0434500e+00
  -1.0455645e+00
  -1.0455645e+00
  -1.0497935e+00
  -1.0455645e+00
  -1.0455645e+00
  -1.0455645e+00
  -1.0455645e+00
  -1.0455645e+00
  -1.0455645e+00
  -1.0476790e+00
  -1.0455645e+00
  -1.0455645e+00
  -1.0455645e+00
  -1.0497935e+00
  -1.0434500e+00
  -1.0455645e+00
  -1.0476790e+00
  -1.0434500e+00
  -1.0455645e+00
  -1.0455645e+00
  -1.0455645e+00
  -1.0434500e+00
  -1.0455645e+00
  -1.0455645e+00
  -1.0476790e+00
  -1.0455645e+00
  -1.0455645e+00
  -1.0455645e+00
  -1.0434500e+00
  -1.0455645e+00
  -1.0455645e+00
  -1.0476790e+00
  -1.0455645e+00
  -1.0455645e+00
  -1.0476790e+00
  -1.0476790e+00
  -1.0455645e+00
  -1.0455645e+00
  -1.0476790e+00
  -1.0434500e+00
  -1.0455645e+00
  -1.0455645e+00
  -1.0476790e+00
  -1.0455645e+00
  -1.0434500e+00
  -1.0455645e+00
  -1.0476790e+00
  -1.0434500e+00
  -1.0455645e+00
  -1.0476790e+00
  -1.0434500e+00
  -1.0455645e+00
  -1.0455645e+00
  -1.0476790e+00
  -1.0455645e+00
  -1.0455645e+00
  -1.0455645e+00
  -1.0476790e+00
  -1.0434500e+00
  -1.0455645e+00
  -1.0476790e+00
  -1.0434500e+00
  -1.0434500e+00
  -1.0476790e+00
  -1.0476790e+00
  -1.0434500e+00
  -1.0455645e+00
  -1.0455645e+00
  -1.0476790e+00
  -1.0434500e+00
  -1.0455645e+00
  -1.0476790e+00
  -1.0434500e+00
  -1.0455645e+00
  -1.0455645e+00
  -1.0476790e+00
  -1.0434500e+00
  -1.0455645e+00
  -1.0476790e+00
  -1.0476790e+00
  -1.0455645e+00
  -1.0455645e+00
  -1.0476790e+00
  -1.0434500e+00
  -1.0455645e+00
  -1.0455645e+00
  -1.0476790e+00
  -1.0455645e+00
  -1.0455645e+00
  -1.0455645e+00
  -1.0476790e+00
  -1.0455645e+00
  -1.0455645e+00
  -1.0455645e+00
  -1.0434500e+00
  -1.0434500e+00
  -1.0455645e+00
  -1.0455645e+00
  -1.0434500e+00
  -1.0455645e+00
  -1.0455645e+00
  -1.0476790e+00
  -1.0455645e+00
  -1.0434500e+00
  -1.0455645e+00
  -1.0434500e+00
  -1.0434500e+00
  -1.0455645e+00
  -1.0476790e+00
  -1.0434500e+00
  -1.0455645e+00
  -1.0455645e+00
  -1.0476790e+00
  -1.0434500e+00
  -1.0455645e+00
  -1.0455645e+00
  -1.0434500e+00
  -1.0434500e+00
  -1.0455645e+00
  -1.0476790e+00
  -1.0434500e+00
  -1.0455645e+00
  -1.0455645e+00
  -1.0476790e+00
  -1.0434500e+00
  -1.0455645e+00
  -1.0455645e+00
  -1.0497935e+00
  -1.0455645e+00
  -1.0455645e+00
  -1.0476790e+00
  -1.0434500e+00
  -1.0455645e+00
  -1.0455645e+00
  -1.0476790e+00
  -1.0434500e+00
  -1.0455645e+00
  -1.0476790e+00
  -1.0434500e+00
  -1.0434500e+00
  -1.0455645e+00
  -1.0455645e+00
  -1.0434500e+00
  -1.0455645e+00
  -1.0455645e+00
  -1.0476790e+00
  -1.0434500e+00
  -1.0455645e+00
  -1.0476790e+00
  -1.0540224e+00
  -1.0455645e+00
  -1.0455645e+00
  -1.0455645e+00
  -1.0434500e+00
  -1.0455645e+00
  -1.0455645e+00
  -1.0476790e+00
  -1.0434500e+00
  -1.0455645e+00
  -1.0476790e+00
  -1.0540224e+00
  -1.0455645e+00
  -1.0455645e+00
  -1.0476790e+00
  -1.0455645e+00
  -1.0455645e+00
  -1.0476790e+00
  -1.0476790e+00
  -1.0434500e+00
  -1.0434500e+00
  -1.0476790e+00
  -1.0476790e+00
  -1.0455645e+00
  -1.0455645e+00
  -1.0476790e+00
  -1.0434500e+00
  -1.0455645e+00
  -1.0455645e+00
  -1.0476790e+00
  -1.0455645e+00
  -1.0434500e+00
  -1.0476790e+00
  -1.0476790e+00
  -1.0434500e+00
  -1.0455645e+00
  -1.0455645e+00
  -1.0455645e+00
  -1.0434500e+00
  -1.0455645e+00
  -1.0476790e+00
  -1.0455645e+00
  -1.0434500e+00
  -1.0455645e+00
  -1.0476790e+00
  -1.0455645e+00
  -1.0455645e+00
  -1.0455645e+00
  -1.0434500e+00
  -1.0455645e+00
  -1.0455645e+00
  -1.0476790e+00
  -1.0434500e+00
  -1.0434500e+00
  -1.0455645e+00
  -1.0476790e+00
  -1.0434500e+00
  -1.0455645e+00
  -1.0455645e+00
  -1.0434500e+00
  -1.0434500e+00
  -1.0455645e+00
  -1.0476790e+00
  -1.0455645e+00
  -1.0455645e+00
  -1.0434500e+00
  -1.0476790e+00
  -1.0434500e+00
  -1.0434500e+00
  -1.0476790e+00
  -1.0434500e+00
  -1.0434500e+00
  -1.0455645e+00
  -1.0476790e+00
  -1.0434500e+00
  -1.0455645e+00
  -1.0455645e+00
  -1.0476790e+00
  -1.0455645e+00
  -1.0455645e+00
  -1.0476790e+00
  -1.0434500e+00
  -1.0455645e+00
  -1.0455645e+00
  -1.0476790e+00
  -1.0434500e+00
  -1.0434500e+00
  -1.0455645e+00
  -1.0476790e+00
  -1.0434500e+00
  -1.0455645e+00
  -1.0455645e+00
  -1.0434500e+00
  -1.0434500e+00
  -1.0476790e+00
  -1.0476790e+00
  -1.0434500e+00
  -1.0434500e+00
  -1.0455645e+00
  -1.0476790e+00
  -1.0434500e+00
  -1.0455645e+00
  -1.0455645e+00
  -1.0476790e+00
  -1.0455645e+00
  -1.0455645e+00
  -1.0476790e+00
  -1.0434500e+00
  -1.0455645e+00
  -1.0455645e+00
  -1.0455645e+00
  -1.0434500e+00
  -1.0455645e+00
  -1.0476790e+00
  -1.0476790e+00
  -1.0434500e+00
  -1.0455645e+00
  -1.0476790e+00
  -1.0434500e+00
  -1.0455645e+00
  -1.0455645e+00
  -1.0476790e+00
  -1.0434500e+00
  -1.0455645e+00
  -1.0455645e+00
  -1.0476790e+00
  -1.0434500e+00
  -1.0455645e+00
  -1.0455645e+00
  -1.0434500e+00
  -1.0455645e+00
  -1.0455645e+00
  -1.0476790e+00
  -1.0434500e+00
  -1.0455645e+00
  -1.0455645e+00
  -1.0476790e+00
  -1.0455645e+00
  -1.0455645e+00
  -1.0476790e+00
  -1.0434500e+00
  -1.0455645e+00
  -1.0455645e+00
  -1.0455645e+00
  -1.0434500e+00
  -1.0455645e+00
  -1.0455645e+00
  -1.0476790e+00
  -1.0455645e+00
  -1.0455645e+00
  -1.0476790e+00
  -1.0519080e+00
  -1.0455645e+00
  -1.0455645e+00
  -1.0455645e+00
  -1.0434500e+00
  -1.0455645e+00
  -1.0476790e+00
  -1.0476790e+00
  -1.0434500e+00
  -1.0455645e+00
  -1.0476790e+00
  -1.0519080e+00
  -1.0455645e+00
  -1.0455645e+00
  -1.0476790e+00
  -1.0434500e+00
  -1.0455645e+00
  -1.0455645e+00
  -1.0476790e+00
  -1.0434500e+00
  -1.0455645e+00
  -1.0455645e+00
  -1.0476790e+00
  -1.0455645e+00
  -1.0455645e+00
  -1.0476790e+00
  -1.0434500e+00
  -1.0455645e+00
  -1.0455645e+00
  -1.0476790e+00
  -1.0455645e+00
  -1.0476790e+00
  -1.0476790e+00
  -1.0476790e+00
  -1.0434500e+00
  -1.0455645e+00
  -1.0455645e+00
  -1.0434500e+00
  -1.0455645e+00
  -1.0455645e+00
  -1.0476790e+00
  -1.0434500e+00
  -1.0434500e+00
  -1.0455645e+00
  -1.0476790e+00
  -1.0434500e+00
  -1.0455645e+00
  -1.0455645e+00
  -1.0434500e+00
  -1.0455645e+00
  -1.0455645e+00
  -1.0476790e+00
  -1.0434500e+00
  -1.0455645e+00
  -1.0476790e+00
  -1.0476790e+00
  -1.0434500e+00
  -1.0455645e+00
  -1.0476790e+00
  -1.0434500e+00
  -1.0434500e+00
  -1.0455645e+00
  -1.0455645e+00
  -1.0434500e+00
  -1.0455645e+00
  -1.0455645e+00
  -1.0476790e+00
  -1.0434500e+00
  -1.0455645e+00
  -1.0476790e+00
  -1.0497935e+00
  -1.0434500e+00
  -1.0455645e+00
  -1.0476790e+00
  -1.0434500e+00
  -1.0434500e+00
  -1.0476790e+00
  -1.0476790e+00
  -1.0434500e+00
  -1.0455645e+00
  -1.0455645e+00
  -1.0476790e+00
  -1.0434500e+00
  -1.0455645e+00
  -1.0476790e+00
  -1.0434500e+00
  -1.0455645e+00
  -1.0455645e+00
  -1.0476790e+00
  -1.0434500e+00
  -1.0455645e+00
  -1.0455645e+00
  -1.0476790e+00
  -1.0455645e+00
  -1.0455645e+00
  -1.0455645e+00
  -1.0434500e+00
  -1.0455645e+00
  -1.0455645e+00
  -1.0476790e+00
  -1.0434500e+00
  -1.0434500e+00
  -1.0455645e+00
  -1.0476790e+00
  -1.0455645e+00
  -1.0455645e+00
  -1.0455645e+00
  -1.0434500e+00
  -1.0455645e+00
  -1.0455645e+00
  -1.0476790e+00
  -1.0434500e+00
  -1.0434500e+00
  -1.0455645e+00
  -1.0476790e+00
  -1.0434500e+00
  -1.0455645e+00
  -1.0455645e+00
  -1.0476790e+00
  -1.0434500e+00
  -1.0455645e+00
  -1.0455645e+00
  -1.0434500e+00
  -1.0434500e+00
  -1.0455645e+00
  -1.0476790e+00
  -1.0455645e+00
  -1.0455645e+00
  -1.0455645e+00
  -1.0476790e+00
  -1.0455645e+00
  -1.0455645e+00
  -1.0455645e+00
  -1.0455645e+00
  -1.0455645e+00
  -1.0455645e+00
  -1.0476790e+00
  -1.0455645e+00
  -1.0455645e+00
  -1.0455645e+00
  -1.0476790e+00
  -1.0434500e+00
  -1.0455645e+00
  -1.0476790e+00
  -1.0434500e+00
  -1.0455645e+00
  -1.0455645e+00
  -1.0476790e+00
  -1.0455645e+00
  -1.0455645e+00
  -1.0455645e+00
  -1.0476790e+00
  -1.0434500e+00
  -1.0455645e+00
  -1.0476790e+00
  -1.0434500e+00
  -1.0455645e+00
  -1.0455645e+00
  -1.0476790e+00
  -1.0434500e+00
  -1.0455645e+00
  -1.0455645e+00
  -1.0476790e+00
  -1.0455645e+00
  -1.0434500e+00
  -1.0455645e+00
  -1.0434500e+00
  -1.0434500e+00
  -1.0455645e+00
  -1.0476790e+00
  -1.0434500e+00
  -1.0455645e+00
  -1.0455645e+00
  -1.0476790e+00
  -1.0434500e+00
  -1.0455645e+00
  -1.0476790e+00
  -1.0476790e+00
  -1.0434500e+00
  -1.0455645e+00
  -1.0476790e+00
  -1.0434500e+00
  -1.0455645e+00
  -1.0476790e+00
  -1.0476790e+00
  -1.0434500e+00
  -1.0455645e+00
  -1.0455645e+00
  -1.0497935e+00
  -1.0434500e+00
  -1.0455645e+00
  -1.0476790e+00
  -1.0434500e+00
  -1.0455645e+00
  -1.0455645e+00
  -1.0455645e+00
  -1.0434500e+00
  -1.0455645e+00
  -1.0476790e+00
  -1.0476790e+00
  -1.0434500e+00
  -1.0434500e+00
  -1.0455645e+00
  -1.0434500e+00
  -1.0455645e+00
  -1.0455645e+00
  -1.0455645e+00
  -1.0434500e+00
  -1.0434500e+00
  -1.0455645e+00
  -1.0476790e+00
  -1.0455645e+00
  -1.0455645e+00
  -1.0476790e+00
  -1.0434500e+00
  -1.0455645e+00
  -1.0455645e+00
  -1.0476790e+00
  -1.0434500e+00
  -1.0455645e+00
  -1.0476790e+00
  -1.0476790e+00
  -1.0434500e+00
  -1.0455645e+00
  -1.0476790e+00
  -1.0434500e+00
  -1.0455645e+00
  -1.0455645e+00
  -1.0476790e+00
  -1.0434500e+00
  -1.0455645e+00
  -1.0476790e+00
  -1.0476790e+00
  -1.0434500e+00
  -1.0455645e+00
  -1.0476790e+00
  -1.0434500e+00
  -1.0455645e+00
  -1.0455645e+00
  -1.0476790e+00
  -1.0434500e+00
  -1.0434500e+00
  -1.0455645e+00
  -1.0476790e+00
  -1.0434500e+00
  -1.0455645e+00
  -1.0476790e+00
  -1.0497935e+00
  -1.0434500e+00
  -1.0455645e+00
  -1.0476790e+00
  -1.0434500e+00
  -1.0455645e+00
  -1.0455645e+00
  -1.0476790e+00
  -1.0434500e+00
  -1.0455645e+00
  -1.0455645e+00
  -1.0476790e+00
  -1.0434500e+00
  -1.0455645e+00
  -1.0476790e+00
  -1.0434500e+00
  -1.0455645e+00
  -1.0455645e+00
  -1.0476790e+00
  -1.0455645e+00
  -1.0434500e+00
  -1.0455645e+00
  -1.0476790e+00
  -1.0455645e+00
  -1.0455645e+00
  -1.0455645e+00
  -1.0455645e+00
  -1.0434500e+00
  -1.0455645e+00
  -1.0476790e+00
  -1.0434500e+00
  -1.0434500e+00
  -1.0455645e+00
  -1.0476790e+00
  -1.0455645e+00
  -1.0455645e+00
  -1.0476790e+00
  -1.0434500e+00
  -1.0434500e+00
  -1.0455645e+00
  -1.0476790e+00
  -1.0434500e+00
  -1.0455645e+00
  -1.0476790e+00
  -1.0476790e+00
  -1.0434500e+00
  -1.0455645e+00
  -1.0455645e+00
  -1.0434500e+00
  -1.0434500e+00
  -1.0455645e+00
  -1.0476790e+00
  -1.0455645e+00
  -1.0455645e+00
  -1.0455645e+00
  -1.0476790e+00
  -1.0434500e+00
  -1.0455645e+00
  -1.0455645e+00
  -1.0476790e+00
  -1.0434500e+00
  -1.0455645e+00
  -1.0455645e+00
  -1.0434500e+00
  -1.0455645e+00
  -1.0476790e+00
  -1.0476790e+00
  -1.0434500e+00
  -1.0455645e+00
  -1.0476790e+00
  -1.0476790e+00
  -1.0434500e+00
  -1.0455645e+00
  -1.0476790e+00
  -1.0434500e+00
  -1.0455645e+00
  -1.0455645e+00
  -1.0476790e+00
  -1.0434500e+00
  -1.0455645e+00
  -1.0455645e+00
  -1.0476790e+00
  -1.0434500e+00
  -1.0455645e+00
  -1.0476790e+00
  -1.0434500e+00
  -1.0455645e+00
  -1.0455645e+00
  -1.0455645e+00
  -1.0434500e+00
  -1.0434500e+00
  -1.0455645e+00
  -1.0476790e+00
  -1.0434500e+00
  -1.0455645e+00
  -1.0455645e+00
  -1.0434500e+00
  -1.0455645e+00
  -1.0455645e+00
  -1.0476790e+00
  -1.0434500e+00
  -1.0455645e+00
  -1.0476790e+00
  -1.0476790e+00
  -1.0434500e+00
  -1.0455645e+00
  -1.0476790e+00
  -1.0434500e+00
  -1.0455645e+00
  -1.0455645e+00
  -1.0476790e+00
  -1.0434500e+00
  -1.0455645e+00
  -1.0455645e+00
  -1.0497935e+00
  -1.0434500e+00
  -1.0455645e+00
  -1.0476790e+00
  -1.0434500e+00
  -1.0455645e+00
  -1.0455645e+00
  -1.0476790e+00
  -1.0455645e+00
  -1.0434500e+00
  -1.0455645e+00
  -1.0476790e+00
  -1.0455645e+00
  -1.0455645e+00
  -1.0476790e+00
  -1.0519080e+00
  -1.0434500e+00
  -1.0455645e+00
  -1.0476790e+00
  -1.0434500e+00
  -1.0434500e+00
  -1.0455645e+00
  -1.0476790e+00
  -1.0434500e+00
  -1.0455645e+00
  -1.0455645e+00
  -1.0497935e+00
  -1.0455645e+00
  -1.0476790e+00
  -1.0476790e+00
  -1.0434500e+00
  -1.0455645e+00
  -1.0455645e+00
  -1.0476790e+00
  -1.0455645e+00
  -1.0455645e+00
  -1.0476790e+00
  -1.0540224e+00
  -1.0434500e+00
  -1.0455645e+00
  -1.0476790e+00
  -1.0434500e+00
  -1.0455645e+00
  -1.0476790e+00
  -1.0476790e+00
  -1.0434500e+00
  -1.0455645e+00
  -1.0455645e+00
  -1.0476790e+00
  -1.0434500e+00
  -1.0455645e+00
  -1.0476790e+00
  -1.0455645e+00
  -1.0434500e+00
  -1.0476790e+00
  -1.0476790e+00
  -1.0434500e+00
  -1.0455645e+00
  -1.0476790e+00
  -1.0476790e+00
  -1.0455645e+00
  -1.0455645e+00
  -1.0455645e+00
  -1.0434500e+00
  -1.0434500e+00
  -1.0455645e+00
  -1.0476790e+00
  -1.0434500e+00
  -1.0455645e+00
  -1.0476790e+00
  -1.0476790e+00
  -1.0434500e+00
  -1.0455645e+00
  -1.0476790e+00
  -1.0434500e+00
  -1.0455645e+00
  -1.0455645e+00
  -1.0476790e+00
  -1.0434500e+00
  -1.0455645e+00
  -1.0476790e+00
  -1.0476790e+00
  -1.0434500e+00
  -1.0455645e+00
  -1.0476790e+00
  -1.0434500e+00
  -1.0455645e+00
  -1.0455645e+00
  -1.0455645e+00
  -1.0434500e+00
  -1.0455645e+00
  -1.0455645e+00
  -1.0497935e+00
  -1.0434500e+00
  -1.0455645e+00
  -1.0455645e+00
  -1.0434500e+00
  -1.0434500e+00
  -1.0455645e+00
  -1.0476790e+00
  -1.0434500e+00
  -1.0455645e+00
  -1.0455645e+00
  -1.0476790e+00
  -1.0455645e+00
  -1.0455645e+00
  -1.0476790e+00
  -1.0455645e+00
  -1.0455645e+00
  -1.0455645e+00
  -1.0455645e+00
  -1.0434500e+00
  -1.0455645e+00
  -1.0455645e+00
  -1.0476790e+00
  -1.0434500e+00
  -1.0455645e+00
  -1.0455645e+00
  -1.0519080e+00
  -1.0455645e+00
  -1.0455645e+00
  -1.0476790e+00
  -1.0434500e+00
  -1.0434500e+00
  -1.0455645e+00
  -1.0476790e+00
  -1.0434500e+00
  -1.0455645e+00
  -1.0455645e+00
  -1.0434500e+00
  -1.0434500e+00
  -1.0455645e+00
  -1.0455645e+00
  -1.0434500e+00
  -1.0455645e+00
  -1.0455645e+00
  -1.0476790e+00
  -1.0434500e+00
  -1.0455645e+00
  -1.0455645e+00
  -1.0455645e+00
  -1.0434500e+00
  -1.0455645e+00
  -1.0476790e+00
  -1.0434500e+00
  -1.0455645e+00
  -1.0455645e+00
  -1.0476790e+00
  -1.0455645e+00
  -1.0455645e+00
  -1.0476790e+00
  -1.0476790e+00
  -1.0455645e+00
  -1.0455645e+00
  -1.0476790e+00
  -1.0434500e+00
  -1.0434500e+00
  -1.0476790e+00
  -1.0476790e+00
  -1.0434500e+00
  -1.0455645e+00
  -1.0476790e+00
  -1.0476790e+00
  -1.0455645e+00
  -1.0455645e+00
  -1.0476790e+00
  -1.0434500e+00
  -1.0455645e+00
  -1.0455645e+00
  -1.0476790e+00
  -1.0434500e+00
  -1.0455645e+00
  -1.0455645e+00
  -1.0476790e+00
  -1.0434500e+00
  -1.0455645e+00
  -1.0455645e+00
  -1.0434500e+00
  -1.0455645e+00
  -1.0455645e+00
  -1.0476790e+00
  -1.0455645e+00
  -1.0455645e+00
  -1.0455645e+00
  -1.0476790e+00
  -1.0455645e+00
  -1.0455645e+00
  -1.0476790e+00
  -1.0434500e+00
  -1.0455645e+00
  -1.0455645e+00
  -1.0476790e+00
  -1.0434500e+00
  -1.0455645e+00
  -1.0455645e+00
  -1.0497935e+00
  -1.0455645e+00
  -1.0455645e+00
  -1.0476790e+00
  -1.0434500e+00
  -1.0455645e+00
  -1.0455645e+00
  -1.0476790e+00
  -1.0434500e+00
  -1.0455645e+00
  -1.0455645e+00
  -1.0476790e+00
  -1.0455645e+00
  -1.0455645e+00
  -1.0476790e+00
  -1.0413355e+00
  -1.0455645e+00
  -1.0455645e+00
  -1.0476790e+00
  -1.0434500e+00
  -1.0455645e+00
  -1.0455645e+00
  -1.0476790e+00
  -1.0434500e+00
  -1.0455645e+00
  -1.0455645e+00
  -1.0434500e+00
  -1.0455645e+00
  -1.0455645e+00
  -1.0455645e+00
  -1.0434500e+00
  -1.0455645e+00
  -1.0455645e+00
  -1.0476790e+00
  -1.0434500e+00
  -1.0455645e+00
  -1.0476790e+00
  -1.0434500e+00
  -1.0434500e+00
  -1.0455645e+00
  -1.0476790e+00
  -1.0434500e+00
  -1.0455645e+00
  -1.0455645e+00
  -1.0476790e+00
  -1.0434500e+00
  -1.0455645e+00
  -1.0455645e+00
  -1.0540224e+00
  -1.0455645e+00
  -1.0455645e+00
  -1.0455645e+00
  -1.0434500e+00
  -1.0455645e+00
  -1.0455645e+00
  -1.0476790e+00
  -1.0434500e+00
  -1.0455645e+00
  -1.0455645e+00
  -1.0434500e+00
  -1.0434500e+00
  -1.0455645e+00
  -1.0476790e+00
  -1.0434500e+00
  -1.0455645e+00
  -1.0455645e+00
  -1.0476790e+00
  -1.0434500e+00
  -1.0455645e+00
  -1.0476790e+00
  -1.0476790e+00
  -1.0455645e+00
  -1.0455645e+00
  -1.0476790e+00
  -1.0455645e+00
  -1.0434500e+00
  -1.0455645e+00
  -1.0476790e+00
  -1.0455645e+00
  -1.0455645e+00
  -1.0455645e+00
  -1.0519080e+00
  -1.0455645e+00
  -1.0455645e+00
  -1.0476790e+00
  -1.0455645e+00
  -1.0455645e+00
  -1.0455645e+00
  -1.0476790e+00
  -1.0434500e+00
  -1.0455645e+00
  -1.0476790e+00
  -1.0497935e+00
  -1.0455645e+00
  -1.0455645e+00
  -1.0476790e+00
  -1.0434500e+00
  -1.0455645e+00
  -1.0476790e+00
  -1.0476790e+00
  -1.0434500e+00
  -1.0455645e+00
  -1.0476790e+00
  -1.0476790e+00
  -1.0455645e+00
  -1.0455645e+00
  -1.0476790e+00
  -1.0434500e+00
  -1.0455645e+00
  -1.0476790e+00
  -1.0476790e+00
  -1.0434500e+00
  -1.0455645e+00
  -1.0455645e+00
  -1.0476790e+00
  -1.0455645e+00
  -1.0455645e+00
  -1.0476790e+00
  -1.0434500e+00
  -1.0434500e+00
  -1.0455645e+00
  -1.0455645e+00
  -1.0434500e+00
  -1.0455645e+00
  -1.0455645e+00
  -1.0476790e+00
  -1.0434500e+00
  -1.0455645e+00
  -1.0476790e+00
  -1.0434500e+00
  -1.0455645e+00
  -1.0455645e+00
  -1.0476790e+00
  -1.0455645e+00
  -1.0434500e+00
  -1.0455645e+00
  -1.0476790e+00
  -1.0455645e+00
  -1.0455645e+00
  -1.0476790e+00
  -1.0434500e+00
  -1.0434500e+00
  -1.0455645e+00
  -1.0455645e+00
  -1.0434500e+00
  -1.0455645e+00
  -1.0455645e+00
  -1.0476790e+00
  -1.0434500e+00
  -1.0455645e+00
  -1.0476790e+00
  -1.0434500e+00
  -1.0455645e+00
  -1.0455645e+00
  -1.0476790e+00
  -1.0434500e+00
  -1.0455645e+00
  -1.0476790e+00
  -1.0476790e+00
  -1.0455645e+00
  -1.0455645e+00
  -1.0476790e+00
  -1.0434500e+00
  -1.0455645e+00
  -1.0455645e+00
  -1.0476790e+00
  -1.0434500e+00
  -1.0455645e+00
  -1.0476790e+00
  -1.0476790e+00
  -1.0455645e+00
  -1.0455645e+00
  -1.0455645e+00
  -1.0434500e+00
  -1.0455645e+00
  -1.0455645e+00
  -1.0476790e+00
  -1.0434500e+00
  -1.0455645e+00
  -1.0455645e+00
  -1.0476790e+00
  -1.0455645e+00
  -1.0455645e+00
  -1.0476790e+00
  -1.0434500e+00
  -1.0455645e+00
  -1.0455645e+00
  -1.0476790e+00
  -1.0434500e+00
  -1.0434500e+00
  -1.0455645e+00
  -1.0476790e+00
  -1.0434500e+00
  -1.0455645e+00
  -1.0476790e+00
  -1.0519080e+00
  -1.0434500e+00
  -1.0455645e+00
  -1.0455645e+00
  -1.0455645e+00
  -1.0455645e+00
  -1.0455645e+00
  -1.0476790e+00
  -1.0455645e+00
  -1.0455645e+00
  -1.0476790e+00
  -1.0519080e+00
  -1.0455645e+00
  -1.0455645e+00
  -1.0455645e+00
  -1.0434500e+00
  -1.0455645e+00
  -1.0455645e+00
  -1.0476790e+00
  -1.0434500e+00
  -1.0434500e+00
  -1.0476790e+00
  -1.0540224e+00
  -1.0434500e+00
  -1.0455645e+00
  -1.0476790e+00
  -1.0434500e+00
  -1.0434500e+00
  -1.0455645e+00
  -1.0476790e+00
  -1.0455645e+00
  -1.0455645e+00
  -1.0455645e+00
  -1.0476790e+00
  -1.0455645e+00
  -1.0455645e+00
  -1.0476790e+00
  -1.0434500e+00
  -1.0455645e+00
  -1.0476790e+00
  -1.0476790e+00
  -1.0434500e+00
  -1.0434500e+00
  -1.0455645e+00
  -1.0476790e+00
  -1.0434500e+00
  -1.0455645e+00
  -1.0455645e+00
  -1.0434500e+00
  -1.0455645e+00
  -1.0455645e+00
  -1.0476790e+00
  -1.0434500e+00
  -1.0455645e+00
  -1.0455645e+00
  -1.0476790e+00
  -1.0455645e+00
  -1.0455645e+00
  -1.0476790e+00
  -1.0434500e+00
  -1.0455645e+00
  -1.0455645e+00
  -1.0476790e+00
  -1.0455645e+00
  -1.0455645e+00
  -1.0455645e+00
  -1.0497935e+00
  -1.0434500e+00
  -1.0455645e+00
  -1.0476790e+00
  -1.0434500e+00
  -1.0455645e+00
  -1.0455645e+00
  -1.0476790e+00
  -1.0434500e+00
  -1.0455645e+00
  -1.0455645e+00
  -1.0476790e+00
  -1.0455645e+00
  -1.0455645e+00
  -1.0476790e+00
  -1.0434500e+00
  -1.0455645e+00
  -1.0455645e+00
  -1.0476790e+00
  -1.0434500e+00
  -1.0455645e+00
  -1.0455645e+00
  -1.0476790e+00
  -1.0455645e+00
  -1.0455645e+00
  -1.0476790e+00
  -1.0434500e+00
  -1.0455645e+00
  -1.0455645e+00
  -1.0476790e+00
  -1.0434500e+00
  -1.0455645e+00
  -1.0455645e+00
  -1.0476790e+00
  -1.0455645e+00
  -1.0455645e+00
  -1.0455645e+00
  -1.0434500e+00
  -1.0455645e+00
  -1.0455645e+00
  -1.0476790e+00
  -1.0455645e+00
  -1.0455645e+00
  -1.0455645e+00
  -1.0476790e+00
  -1.0434500e+00
  -1.0455645e+00
  -1.0476790e+00
  -1.0434500e+00
  -1.0455645e+00
  -1.0455645e+00
  -1.0476790e+00
  -1.0434500e+00
  -1.0455645e+00
  -1.0455645e+00
  -1.0476790e+00
  -1.0455645e+00
  -1.0455645e+00
  -1.0476790e+00
  -1.0434500e+00
  -1.0434500e+00
  -1.0455645e+00
  -1.0476790e+00
  -1.0434500e+00
  -1.0455645e+00
  -1.0455645e+00
  -1.0476790e+00
  -1.0455645e+00
  -1.0455645e+00
  -1.0476790e+00
  -1.0434500e+00
  -1.0455645e+00
  -1.0455645e+00
  -1.0476790e+00
  -1.0434500e+00
  -1.0455645e+00
  -1.0476790e+00
  -1.0476790e+00
  -1.0455645e+00
  -1.0455645e+00
  -1.0455645e+00
  -1.0434500e+00
  -1.0434500e+00
  -1.0455645e+00
  -1.0476790e+00
  -1.0434500e+00
  -1.0455645e+00
  -1.0455645e+00
  -1.0476790e+00
  -1.0455645e+00
  -1.0434500e+00
  -1.0476790e+00
  -1.0455645e+00
  -1.0434500e+00
  -1.0455645e+00
  -1.0476790e+00
  -1.0434500e+00
  -1.0455645e+00
  -1.0455645e+00
  -1.0476790e+00
  -1.0455645e+00
  -1.0455645e+00
  -1.0455645e+00
  -1.0434500e+00
  -1.0434500e+00
  -1.0455645e+00
  -1.0476790e+00
  -1.0434500e+00
  -1.0455645e+00
  -1.0455645e+00
  -1.0476790e+00
  -1.0434500e+00
  -1.0455645e+00
  -1.0476790e+00
  -1.0519080e+00
  -1.0434500e+00
  -1.0455645e+00
  -1.0476790e+00
  -1.0434500e+00
  -1.0455645e+00
  -1.0455645e+00
  -1.0476790e+00
  -1.0434500e+00
  -1.0455645e+00
  -1.0476790e+00
  -1.0519080e+00
  -1.0455645e+00
  -1.0455645e+00
  -1.0476790e+00
  -1.0434500e+00
  -1.0455645e+00
  -1.0455645e+00
  -1.0455645e+00
  -1.0455645e+00
  -1.0455645e+00
  -1.0455645e+00
  -1.0476790e+00
  -1.0434500e+00
  -1.0455645e+00
  -1.0476790e+00
  -1.0434500e+00
  -1.0455645e+00
  -1.0455645e+00
  -1.0476790e+00
  -1.0434500e+00
  -1.0434500e+00
  -1.0476790e+00
  -1.0476790e+00
  -1.0455645e+00
  -1.0455645e+00
  -1.0476790e+00
  -1.0434500e+00
  -1.0455645e+00
  -1.0476790e+00
  -1.0476790e+00
  -1.0434500e+00
  -1.0455645e+00
  -1.0455645e+00
  -1.0476790e+00
  -1.0434500e+00
  -1.0455645e+00
  -1.0476790e+00
  -1.0434500e+00
  -1.0455645e+00
  -1.0455645e+00
  -1.0455645e+00
  -1.0434500e+00
  -1.0455645e+00
  -1.0455645e+00
  -1.0476790e+00
  -1.0434500e+00
  -1.0455645e+00
  -1.0455645e+00
  -1.0434500e+00
  -1.0455645e+00
  -1.0455645e+00
  -1.0476790e+00
  -1.0434500e+00
  -1.0455645e+00
  -1.0476790e+00
  -1.0476790e+00
  -1.0434500e+00
  -1.0455645e+00
  -1.0455645e+00
  -1.0434500e+00
  -1.0434500e+00
  -1.0455645e+00
  -1.0476790e+00
  -1.0455645e+00
  -1.0455645e+00
  -1.0455645e+00
  -1.0476790e+00
  -1.0455645e+00
  -1.0455645e+00
  -1.0476790e+00
  -1.0434500e+00
  -1.0455645e+00
  -1.0455645e+00
  -1.0476790e+00
  -1.0455645e+00
  -1.0434500e+00
  -1.0476790e+00
  -1.0476790e+00
  -1.0455645e+00
  -1.0455645e+00
  -1.0476790e+00
  -1.0434500e+00
  -1.0455645e+00
  -1.0455645e+00
  -1.0455645e+00
  -1.0434500e+00
  -1.0455645e+00
  -1.0455645e+00
  -1.0476790e+00
  -1.0455645e+00
  -1.0455645e+00
  -1.0455645e+00
  -1.0434500e+00
  -1.0455645e+00
  -1.0455645e+00
  -1.0476790e+00
  -1.0434500e+00
  -1.0455645e+00
  -1.0476790e+00
  -1.0476790e+00
  -1.0434500e+00
  -1.0455645e+00
  -1.0455645e+00
  -1.0434500e+00
  -1.0455645e+00
  -1.0455645e+00
  -1.0476790e+00
  -1.0434500e+00
  -1.0455645e+00
  -1.0455645e+00
  -1.0476790e+00
  -1.0434500e+00
  -1.0455645e+00
  -1.0455645e+00
  -1.0434500e+00
  -1.0434500e+00
  -1.0455645e+00
  -1.0476790e+00
  -1.0434500e+00
  -1.0455645e+00
  -1.0476790e+00
  -1.0476790e+00
  -1.0434500e+00
  -1.0434500e+00
  -1.0476790e+00
  -1.0434500e+00
  -1.0455645e+00
  -1.0455645e+00
  -1.0476790e+00
  -1.0434500e+00
  -1.0455645e+00
  -1.0476790e+00
  -1.0476790e+00
  -1.0434500e+00
  -1.0455645e+00
  -1.0455645e+00
  -1.0497935e+00
  -1.0455645e+00
  -1.0455645e+00
  -1.0476790e+00
  -1.0434500e+00
  -1.0455645e+00
  -1.0455645e+00
  -1.0476790e+00
  -1.0434500e+00
  -1.0455645e+00
  -1.0476790e+00
  -1.0434500e+00
  -1.0455645e+00
  -1.0455645e+00
  -1.0476790e+00
  -1.0434500e+00
  -1.0455645e+00
  -1.0455645e+00
  -1.0476790e+00
  -1.0455645e+00
  -1.0455645e+00
  -1.0476790e+00
  -1.0476790e+00
  -1.0455645e+00
  -1.0455645e+00
  -1.0476790e+00
  -1.0455645e+00
  -1.0455645e+00
  -1.0476790e+00
  -1.0476790e+00
  -1.0455645e+00
  -1.0455645e+00
  -1.0455645e+00
  -1.0476790e+00
  -1.0434500e+00
  -1.0455645e+00
  -1.0476790e+00
  -1.0434500e+00
  -1.0455645e+00
  -1.0455645e+00
  -1.0476790e+00
  -1.0455645e+00
  -1.0455645e+00
  -1.0476790e+00
  -1.0476790e+00
  -1.0455645e+00
  -1.0455645e+00
  -1.0455645e+00
  -1.0434500e+00
  -1.0455645e+00
  -1.0455645e+00
  -1.0476790e+00
  -1.0455645e+00
  -1.0455645e+00
  -1.0476790e+00
  -1.0476790e+00
  -1.0455645e+00
  -1.0455645e+00
  -1.0476790e+00
  -1.0434500e+00
  -1.0455645e+00
  -1.0455645e+00
  -1.0476790e+00
  -1.0434500e+00
  -1.0455645e+00
  -1.0476790e+00
  -1.0476790e+00
  -1.0434500e+00
  -1.0455645e+00
  -1.0476790e+00
  -1.0434500e+00
  -1.0455645e+00
  -1.0455645e+00
  -1.0476790e+00
  -1.0434500e+00
  -1.0455645e+00
  -1.0455645e+00
  -1.0476790e+00
  -1.0434500e+00
  -1.0455645e+00
  -1.0476790e+00
  -1.0434500e+00
  -1.0455645e+00
  -1.0455645e+00
  -1.0476790e+00
  -1.0434500e+00
  -1.0455645e+00
  -1.0455645e+00
  -1.0476790e+00
  -1.0455645e+00
  -1.0455645e+00
  -1.0455645e+00
  -1.0434500e+00
  -1.0455645e+00
  -1.0476790e+00
  -1.0455645e+00
  -1.0434500e+00
  -1.0455645e+00
  -1.0455645e+00
  -1.0476790e+00
  -1.0434500e+00
  -1.0455645e+00
  -1.0476790e+00
  -1.0434500e+00
  -1.0455645e+00
  -1.0455645e+00
  -1.0455645e+00
  -1.0434500e+00
  -1.0455645e+00
  -1.0476790e+00
  -1.0476790e+00
  -1.0434500e+00
  -1.0455645e+00
  -1.0455645e+00
  -1.0434500e+00
  -1.0455645e+00
  -1.0455645e+00
  -1.0455645e+00
  -1.0434500e+00
  -1.0455645e+00
  -1.0455645e+00
  -1.0476790e+00
  -1.0434500e+00
  -1.0455645e+00
  -1.0455645e+00
  -1.0434500e+00
  -1.0455645e+00
  -1.0455645e+00
  -1.0476790e+00
  -1.0434500e+00
  -1.0455645e+00
  -1.0455645e+00
  -1.0476790e+00
  -1.0434500e+00
  -1.0455645e+00
  -1.0455645e+00
  -1.0434500e+00
  -1.0455645e+00
  -1.0455645e+00
  -1.0455645e+00
  -1.0434500e+00
  -1.0455645e+00
  -1.0455645e+00
  -1.0476790e+00
  -1.0434500e+00
  -1.0455645e+00
  -1.0455645e+00
  -1.0434500e+00
  -1.0434500e+00
  -1.0455645e+00
  -1.0476790e+00
  -1.0434500e+00
  -1.0455645e+00
  -1.0455645e+00
  -1.0455645e+00
  -1.0455645e+00
  -1.0455645e+00
  -1.0455645e+00
  -1.0434500e+00
  -1.0455645e+00
  -1.0455645e+00
  -1.0476790e+00
  -1.0434500e+00
  -1.0455645e+00
  -1.0455645e+00
  -1.0476790e+00
  -1.0455645e+00
  -1.0455645e+00
  -1.0476790e+00
  -1.0455645e+00
  -1.0434500e+00
  -1.0455645e+00
  -1.0476790e+00
  -1.0434500e+00
  -1.0455645e+00
  -1.0455645e+00
  -1.0476790e+00
  -1.0434500e+00
  -1.0455645e+00
  -1.0476790e+00
  -1.0455645e+00
  -1.0455645e+00
  -1.0455645e+00
  -1.0455645e+00
  -1.0434500e+00
  -1.0455645e+00
  -1.0455645e+00
  -1.0476790e+00
  -1.0434500e+00
  -1.0455645e+00
  -1.0455645e+00
  -1.0476790e+00
  -1.0434500e+00
  -1.0455645e+00
  -1.0476790e+00
  -1.0434500e+00
  -1.0455645e+00
  -1.0455645e+00
  -1.0476790e+00
  -1.0434500e+00
  -1.0455645e+00
  -1.0455645e+00
  -1.0476790e+00
  -1.0455645e+00
  -1.0455645e+00
  -1.0476790e+00
  -1.0434500e+00
  -1.0455645e+00
  -1.0455645e+00
  -1.0476790e+00
  -1.0434500e+00
  -1.0455645e+00
  -1.0455645e+00
  -1.0476790e+00
  -1.0455645e+00
  -1.0455645e+00
  -1.0455645e+00
  -1.0434500e+00
  -1.0455645e+00
  -1.0455645e+00
  -1.0476790e+00
  -1.0434500e+00
  -1.0455645e+00
  -1.0455645e+00
  -1.0476790e+00
  -1.0455645e+00
  -1.0455645e+00
  -1.0455645e+00
  -1.0434500e+00
  -1.0455645e+00
  -1.0455645e+00
  -1.0476790e+00
  -1.0455645e+00
  -1.0455645e+00
  -1.0455645e+00
  -1.0476790e+00
  -1.0434500e+00
  -1.0455645e+00
  -1.0476790e+00
  -1.0434500e+00
  -1.0434500e+00
  -1.0455645e+00
  -1.0455645e+00
  -1.0434500e+00
  -1.0455645e+00
  -1.0455645e+00
  -1.0476790e+00
  -1.0434500e+00
  -1.0455645e+00
  -1.0455645e+00
  -1.0434500e+00
  -1.0455645e+00
  -1.0455645e+00
  -1.0455645e+00
  -1.0434500e+00
  -1.0455645e+00
  -1.0476790e+00
  -1.0476790e+00
  -1.0434500e+00
  -1.0455645e+00
  -1.0455645e+00
  -1.0434500e+00
  -1.0434500e+00
  -1.0476790e+00
  -1.0476790e+00
  -1.0434500e+00
  -1.0434500e+00
  -1.0455645e+00
  -1.0476790e+00
  -1.0455645e+00
  -1.0455645e+00
  -1.0476790e+00
  -1.0476790e+00
  -1.0434500e+00
  -1.0455645e+00
  -1.0476790e+00
  -1.0434500e+00
  -1.0455645e+00
  -1.0455645e+00
  -1.0476790e+00
  -1.0434500e+00
  -1.0455645e+00
  -1.0455645e+00
  -1.0476790e+00
  -1.0434500e+00
  -1.0455645e+00
  -1.0476790e+00
  -1.0434500e+00
  -1.0455645e+00
  -1.0455645e+00
  -1.0476790e+00
  -1.0434500e+00
  -1.0455645e+00
  -1.0455645e+00
  -1.0476790e+00
  -1.0434500e+00
  -1.0455645e+00
  -1.0455645e+00
  -1.0434500e+00
  -1.0455645e+00
  -1.0455645e+00
  -1.0476790e+00
  -1.0434500e+00
  -1.0455645e+00
  -1.0476790e+00
  -1.0476790e+00
  -1.0455645e+00
  -1.0455645e+00
  -1.0455645e+00
  -1.0434500e+00
  -1.0455645e+00
  -1.0455645e+00
  -1.0476790e+00
  -1.0434500e+00
  -1.0455645e+00
  -1.0455645e+00
  -1.0476790e+00
  -1.0434500e+00
  -1.0455645e+00
  -1.0476790e+00
  -1.0434500e+00
  -1.0455645e+00
  -1.0455645e+00
  -1.0455645e+00
  -1.0434500e+00
  -1.0455645e+00
  -1.0455645e+00
  -1.0476790e+00
  -1.0434500e+00
  -1.0455645e+00
  -1.0455645e+00
  -1.0434500e+00
  -1.0455645e+00
  -1.0455645e+00
  -1.0455645e+00
  -1.0455645e+00
  -1.0455645e+00
  -1.0476790e+00
  -1.0476790e+00
  -1.0434500e+00
  -1.0455645e+00
  -1.0476790e+00
  -1.0497935e+00
  -1.0455645e+00
  -1.0455645e+00
  -1.0476790e+00
  -1.0434500e+00
  -1.0434500e+00
  -1.0455645e+00
  -1.0476790e+00
  -1.0434500e+00
  -1.0455645e+00
  -1.0455645e+00
  -1.0476790e+00
  -1.0455645e+00
  -1.0455645e+00
  -1.0455645e+00
  -1.0434500e+00
  -1.0455645e+00
  -1.0455645e+00
  -1.0455645e+00
  -1.0434500e+00
  -1.0455645e+00
  -1.0476790e+00
  -1.0476790e+00
  -1.0434500e+00
  -1.0455645e+00
  -1.0476790e+00
  -1.0434500e+00
  -1.0455645e+00
  -1.0455645e+00
  -1.0476790e+00
  -1.0434500e+00
  -1.0455645e+00
  -1.0476790e+00
  -1.0476790e+00
  -1.0434500e+00
  -1.0455645e+00
  -1.0455645e+00
  -1.0434500e+00
  -1.0434500e+00
  -1.0476790e+00
  -1.0455645e+00
  -1.0434500e+00
  -1.0434500e+00
  -1.0455645e+00
  -1.0476790e+00
  -1.0434500e+00
  -1.0455645e+00
  -1.0476790e+00
  -1.0434500e+00
  -1.0455645e+00
  -1.0455645e+00
  -1.0476790e+00
  -1.0434500e+00
  -1.0455645e+00
  -1.0455645e+00
  -1.0476790e+00
  -1.0455645e+00
  -1.0455645e+00
  -1.0455645e+00
  -1.0476790e+00
  -1.0455645e+00
  -1.0455645e+00
  -1.0476790e+00
  -1.0434500e+00
  -1.0455645e+00
  -1.0455645e+00
  -1.0476790e+00
  -1.0455645e+00
  -1.0455645e+00
  -1.0476790e+00
  -1.0519080e+00
  -1.0434500e+00
  -1.0455645e+00
  -1.0455645e+00
  -1.0434500e+00
  -1.0455645e+00
  -1.0455645e+00
  -1.0476790e+00
  -1.0434500e+00
  -1.0455645e+00
  -1.0455645e+00
  -1.0476790e+00
  -1.0434500e+00
  -1.0476790e+00
  -1.0476790e+00
  -1.0455645e+00
  -1.0434500e+00
  -1.0455645e+00
  -1.0476790e+00
  -1.0434500e+00
  -1.0455645e+00
  -1.0455645e+00
  -1.0476790e+00
  -1.0455645e+00
  -1.0455645e+00
  -1.0455645e+00
  -1.0434500e+00
  -1.0455645e+00
  -1.0434500e+00
  -1.0476790e+00
  -1.0455645e+00
  -1.0455645e+00
  -1.0476790e+00
  -1.0476790e+00
  -1.0455645e+00
  -1.0455645e+00
  -1.0476790e+00
  -1.0434500e+00
  -1.0434500e+00
  -1.0455645e+00
  -1.0455645e+00
  -1.0434500e+00
  -1.0455645e+00
  -1.0455645e+00
  -1.0476790e+00
  -1.0455645e+00
  -1.0455645e+00
  -1.0455645e+00
  -1.0434500e+00
  -1.0455645e+00
  -1.0455645e+00
  -1.0476790e+00
  -1.0434500e+00
  -1.0455645e+00
  -1.0455645e+00
  -1.0476790e+00
  -1.0434500e+00
  -1.0455645e+00
  -1.0476790e+00
  -1.0434500e+00
  -1.0455645e+00
  -1.0455645e+00
  -1.0476790e+00
  -1.0434500e+00
  -1.0455645e+00
  -1.0455645e+00
  -1.0476790e+00
  -1.0434500e+00
  -1.0455645e+00
  -1.0476790e+00
  -1.0434500e+00
  -1.0434500e+00
  -1.0455645e+00
  -1.0476790e+00
  -1.0434500e+00
  -1.0434500e+00
  -1.0455645e+00
  -1.0476790e+00
  -1.0434500e+00
  -1.0455645e+00
  -1.0455645e+00
  -1.0476790e+00
  -1.0455645e+00
  -1.0476790e+00
  -1.0476790e+00
  -1.0434500e+00
  -1.0434500e+00
  -1.0455645e+00
  -1.0476790e+00
  -1.0455645e+00
  -1.0455645e+00
  -1.0476790e+00
  -1.0519080e+00
  -1.0434500e+00
  -1.0455645e+00
  -1.0476790e+00
  -1.0434500e+00
  -1.0455645e+00
  -1.0455645e+00
  -1.0476790e+00
  -1.0434500e+00
  -1.0434500e+00
  -1.0476790e+00
  -1.0540224e+00
  -1.0455645e+00
  -1.0476790e+00
  -1.0476790e+00
  -1.0455645e+00
  -1.0434500e+00
  -1.0455645e+00
  -1.0476790e+00
  -1.0455645e+00
  -1.0434500e+00
  -1.0455645e+00
  -1.0476790e+00
  -1.0434500e+00
  -1.0455645e+00
  -1.0455645e+00
  -1.0434500e+00
  -1.0455645e+00
  -1.0455645e+00
  -1.0476790e+00
  -1.0434500e+00
  -1.0455645e+00
  -1.0455645e+00
  -1.0476790e+00
  -1.0434500e+00
  -1.0455645e+00
  -1.0455645e+00
  -1.0434500e+00
  -1.0455645e+00
  -1.0455645e+00
  -1.0476790e+00
  -1.0434500e+00
  -1.0455645e+00
  -1.0455645e+00
  -1.0476790e+00
  -1.0455645e+00
  -1.0455645e+00
  -1.0455645e+00
  -1.0265341e+00
  -1.0455645e+00
  -1.0455645e+00
  -1.0476790e+00
  -1.0434500e+00
  -1.0455645e+00
  -1.0476790e+00
  -1.0476790e+00
  -1.0434500e+00
  -1.0455645e+00
  -1.0455645e+00
  -1.0434500e+00
  -1.0455645e+00
  -1.0455645e+00
  -1.0476790e+00
  -1.0455645e+00
  -1.0455645e+00
  -1.0476790e+00
  -1.0476790e+00
  -1.0434500e+00
  -1.0455645e+00
  -1.0476790e+00
  -1.0434500e+00
  -1.0455645e+00
  -1.0455645e+00
  -1.0476790e+00
  -1.0434500e+00
  -1.0455645e+00
  -1.0476790e+00
  -1.0476790e+00
  -1.0434500e+00
  -1.0455645e+00
  -1.0455645e+00
  -1.0434500e+00
  -1.0434500e+00
  -1.0455645e+00
  -1.0476790e+00
  -1.0434500e+00
  -1.0455645e+00
  -1.0476790e+00
  -1.0476790e+00
  -1.0434500e+00
  -1.0455645e+00
  -1.0455645e+00
  -1.0434500e+00
  -1.0434500e+00
  -1.0476790e+00
  -1.0455645e+00
  -1.0434500e+00
  -1.0455645e+00
  -1.0455645e+00
  -1.0476790e+00
  -1.0455645e+00
  -1.0455645e+00
  -1.0455645e+00
  -1.0434500e+00
  -1.0434500e+00
  -1.0455645e+00
  -1.0476790e+00
  -1.0434500e+00
  -1.0434500e+00
  -1.0455645e+00
  -1.0476790e+00
  -1.0434500e+00
  -1.0455645e+00
  -1.0455645e+00
  -1.0434500e+00
  -1.0455645e+00
  -1.0476790e+00
  -1.0455645e+00
  -1.0455645e+00
  -1.0455645e+00
  -1.0455645e+00
  -1.0476790e+00
  -1.0434500e+00
  -1.0455645e+00
  -1.0455645e+00
  -1.0519080e+00
  -1.0455645e+00
  -1.0455645e+00
  -1.0476790e+00
  -1.0434500e+00
  -1.0455645e+00
  -1.0455645e+00
  -1.0476790e+00
  -1.0434500e+00
  -1.0455645e+00
  -1.0476790e+00
  -1.0455645e+00
  -1.0455645e+00
  -1.0455645e+00
  -1.0476790e+00
  -1.0434500e+00
  -1.0455645e+00
  -1.0455645e+00
  -1.0455645e+00
  -1.0455645e+00
  -1.0455645e+00
  -1.0455645e+00
  -1.0476790e+00
  -1.0455645e+00
  -1.0455645e+00
  -1.0476790e+00
  -1.0434500e+00
  -1.0455645e+00
  -1.0455645e+00
  -1.0476790e+00
  -1.0434500e+00
  -1.0455645e+00
  -1.0455645e+00
  -1.0519080e+00
  -1.0455645e+00
  -1.0455645e+00
  -1.0476790e+00
  -1.0434500e+00
  -1.0455645e+00
  -1.0455645e+00
  -1.0476790e+00
  -1.0455645e+00
  -1.0434500e+00
  -1.0476790e+00
  -1.0476790e+00
  -1.0455645e+00
  -1.0455645e+00
  -1.0476790e+00
  -1.0434500e+00
  -1.0455645e+00
  -1.0455645e+00
  -1.0455645e+00
  -1.0413355e+00
  -1.0455645e+00
  -1.0455645e+00
  -1.0476790e+00
  -1.0434500e+00
  -1.0455645e+00
  -1.0476790e+00
  -1.0434500e+00
  -1.0434500e+00
  -1.0455645e+00
  -1.0476790e+00
  -1.0434500e+00
  -1.0455645e+00
  -1.0455645e+00
  -1.0476790e+00
  -1.0434500e+00
  -1.0455645e+00
  -1.0476790e+00
  -1.0434500e+00
  -1.0434500e+00
  -1.0476790e+00
  -1.0476790e+00
  -1.0434500e+00
  -1.0455645e+00
  -1.0455645e+00
  -1.0476790e+00
  -1.0434500e+00
  -1.0455645e+00
  -1.0455645e+00
  -1.0434500e+00
  -1.0455645e+00
  -1.0455645e+00
  -1.0455645e+00
  -1.0434500e+00
  -1.0455645e+00
  -1.0476790e+00
  -1.0476790e+00
  -1.0434500e+00
  -1.0455645e+00
  -1.0455645e+00
  -1.0434500e+00
  -1.0434500e+00
  -1.0434500e+00
  -1.0476790e+00
  -1.0434500e+00
  -1.0455645e+00
  -1.0476790e+00
  -1.0476790e+00
  -1.0434500e+00
  -1.0455645e+00
  -1.0476790e+00
  -1.0434500e+00
  -1.0434500e+00
  -1.0455645e+00
  -1.0476790e+00
  -1.0434500e+00
  -1.0455645e+00
  -1.0455645e+00
  -1.0476790e+00
  -1.0455645e+00
  -1.0455645e+00
  -1.0455645e+00
  -1.0434500e+00
  -1.0434500e+00
  -1.0476790e+00
  -1.0476790e+00
  -1.0434500e+00
  -1.0455645e+00
  -1.0476790e+00
  -1.0476790e+00
  -1.0434500e+00
  -1.0455645e+00
  -1.0455645e+00
  -1.0434500e+00
  -1.0455645e+00
  -1.0455645e+00
  -1.0476790e+00
  -1.0434500e+00
  -1.0455645e+00
  -1.0476790e+00
  -1.0476790e+00
  -1.0434500e+00
  -1.0455645e+00
  -1.0455645e+00
  -1.0434500e+00
  -1.0455645e+00
  -1.0455645e+00
  -1.0476790e+00
  -1.0455645e+00
  -1.0434500e+00
  -1.0455645e+00
  -1.0455645e+00
  -1.0455645e+00
  -1.0455645e+00
  -1.0455645e+00
  -1.0476790e+00
  -1.0455645e+00
  -1.0455645e+00
  -1.0476790e+00
  -1.0434500e+00
  -1.0434500e+00
  -1.0455645e+00
  -1.0476790e+00
  -1.0434500e+00
  -1.0455645e+00
  -1.0476790e+00
  -1.0434500e+00
  -1.0434500e+00
  -1.0455645e+00
  -1.0455645e+00
  -1.0434500e+00
  -1.0455645e+00
  -1.0455645e+00
  -1.0476790e+00
  -1.0434500e+00
  -1.0455645e+00
  -1.0455645e+00
  -1.0476790e+00
  -1.0455645e+00
  -1.0455645e+00
  -1.0476790e+00
  -1.0434500e+00
  -1.0455645e+00
  -1.0455645e+00
  -1.0455645e+00
  -1.0434500e+00
  -1.0455645e+00
  -1.0455645e+00
  -1.0476790e+00
  -1.0434500e+00
  -1.0455645e+00
  -1.0476790e+00
  -1.0434500e+00
  -1.0455645e+00
  -1.0455645e+00
  -1.0476790e+00
  -1.0455645e+00
  -1.0455645e+00
  -1.0455645e+00
  -1.0497935e+00
  -1.0434500e+00
  -1.0455645e+00
  -1.0476790e+00
  -1.0434500e+00
  -1.0455645e+00
  -1.0455645e+00
  -1.0476790e+00
  -1.0455645e+00
  -1.0455645e+00
  -1.0455645e+00
  -1.0476790e+00
  -1.0455645e+00
  -1.0455645e+00
  -1.0455645e+00
  -1.0434500e+00
  -1.0434500e+00
  -1.0455645e+00
  -1.0476790e+00
  -1.0434500e+00
  -1.0455645e+00
  -1.0455645e+00
  -1.0476790e+00
  -1.0434500e+00
  -1.0455645e+00
  -1.0455645e+00
  -1.0434500e+00
  -1.0455645e+00
  -1.0476790e+00
  -1.0476790e+00
  -1.0434500e+00
  -1.0455645e+00
  -1.0476790e+00
  -1.0476790e+00
  -1.0434500e+00
  -1.0455645e+00
  -1.0476790e+00
  -1.0455645e+00
  -1.0455645e+00
  -1.0455645e+00
  -1.0476790e+00
  -1.0434500e+00
  -1.0455645e+00
  -1.0476790e+00
  -1.0476790e+00
  -1.0455645e+00
  -1.0455645e+00
  -1.0455645e+00
  -1.0434500e+00
  -1.0455645e+00
  -1.0455645e+00
  -1.0476790e+00
  -1.0455645e+00
  -1.0455645e+00
  -1.0455645e+00
  -1.0476790e+00
  -1.0434500e+00
  -1.0455645e+00
  -1.0476790e+00
  -1.0434500e+00
  -1.0455645e+00
  -1.0455645e+00
  -1.0476790e+00
  -1.0434500e+00
  -1.0455645e+00
  -1.0455645e+00
  -1.0476790e+00
  -1.0434500e+00
  -1.0455645e+00
  -1.0455645e+00
  -1.0434500e+00
  -1.0455645e+00
  -1.0455645e+00
  -1.0455645e+00
  -1.0434500e+00
  -1.0455645e+00
  -1.0455645e+00
  -1.0476790e+00
  -1.0455645e+00
  -1.0455645e+00
  -1.0476790e+00
  -1.0519080e+00
  -1.0434500e+00
  -1.0455645e+00
  -1.0455645e+00
  -1.0434500e+00
  -1.0455645e+00
  -1.0455645e+00
  -1.0476790e+00
  -1.0434500e+00
  -1.0455645e+00
  -1.0476790e+00
  -1.0434500e+00
  -1.0455645e+00
  -1.0476790e+00
  -1.0455645e+00
  -1.0434500e+00
  -1.0455645e+00
  -1.0455645e+00
  -1.0476790e+00
  -1.0434500e+00
  -1.0455645e+00
  -1.0455645e+00
  -1.0476790e+00
  -1.0455645e+00
  -1.0455645e+00
  -1.0476790e+00
  -1.0434500e+00
  -1.0434500e+00
  -1.0455645e+00
  -1.0476790e+00
  -1.0434500e+00
  -1.0455645e+00
  -1.0455645e+00
  -1.0519080e+00
  -1.0455645e+00
  -1.0455645e+00
  -1.0455645e+00
  -1.0434500e+00
  -1.0455645e+00
  -1.0455645e+00
  -1.0476790e+00
  -1.0434500e+00
  -1.0455645e+00
  -1.0455645e+00
  -1.0476790e+00
  -1.0434500e+00
  -1.0455645e+00
  -1.0455645e+00
  -1.0434500e+00
  -1.0455645e+00
  -1.0455645e+00
  -1.0476790e+00
  -1.0434500e+00
  -1.0455645e+00
  -1.0455645e+00
  -1.0476790e+00
  -1.0455645e+00
  -1.0455645e+00
  -1.0476790e+00
  -1.0455645e+00
  -1.0455645e+00
  -1.0476790e+00
  -1.0476790e+00
  -1.0434500e+00
  -1.0455645e+00
  -1.0476790e+00
  -1.0476790e+00
  -1.0434500e+00
  -1.0455645e+00
  -1.0476790e+00
  -1.0434500e+00
  -1.0455645e+00
  -1.0455645e+00
  -1.0476790e+00
  -1.0434500e+00
  -1.0455645e+00
  -1.0455645e+00
  -1.0476790e+00
  -1.0434500e+00
  -1.0455645e+00
  -1.0476790e+00
  -1.0434500e+00
  -1.0434500e+00
  -1.0455645e+00
  -1.0476790e+00
  -1.0434500e+00
  -1.0434500e+00
  -1.0455645e+00
  -1.0476790e+00
  -1.0434500e+00
  -1.0455645e+00
  -1.0455645e+00
  -1.0455645e+00
  -1.0455645e+00
  -1.0455645e+00
  -1.0476790e+00
  -1.0434500e+00
  -1.0455645e+00
  -1.0455645e+00
  -1.0476790e+00
  -1.0434500e+00
  -1.0455645e+00
  -1.0476790e+00
  -1.0434500e+00
  -1.0455645e+00
  -1.0455645e+00
  -1.0455645e+00
  -1.0434500e+00
  -1.0434500e+00
  -1.0455645e+00
  -1.0476790e+00
  -1.0455645e+00
  -1.0455645e+00
  -1.0455645e+00
  -1.0434500e+00
  -1.0455645e+00
  -1.0455645e+00
  -1.0476790e+00
  -1.0434500e+00
  -1.0455645e+00
  -1.0455645e+00
  -1.0476790e+00
  -1.0434500e+00
  -1.0455645e+00
  -1.0476790e+00
  -1.0434500e+00
  -1.0434500e+00
  -1.0455645e+00
  -1.0476790e+00
  -1.0455645e+00
  -1.0455645e+00
  -1.0455645e+00
  -1.0455645e+00
  -1.0434500e+00
  -1.0455645e+00
  -1.0476790e+00
  -1.0434500e+00
  -1.0434500e+00
  -1.0455645e+00
  -1.0476790e+00
  -1.0434500e+00
  -1.0455645e+00
  -1.0455645e+00
  -1.0476790e+00
  -1.0455645e+00
  -1.0455645e+00
  -1.0476790e+00
  -1.0519080e+00
  -1.0434500e+00
  -1.0455645e+00
  -1.0455645e+00
  -1.0434500e+00
  -1.0455645e+00
  -1.0455645e+00
  -1.0476790e+00
  -1.0434500e+00
  -1.0476790e+00
  -1.0455645e+00
  -1.0519080e+00
  -1.0434500e+00
  -1.0455645e+00
  -1.0476790e+00
  -1.0434500e+00
  -1.0455645e+00
  -1.0455645e+00
  -1.0476790e+00
  -1.0434500e+00
  -1.0476790e+00
  -1.0455645e+00
  -1.0476790e+00
  -1.0455645e+00
  -1.0455645e+00
  -1.0476790e+00
  -1.0434500e+00
  -1.0455645e+00
  -1.0455645e+00
  -1.0476790e+00
  -1.0455645e+00
  -1.0455645e+00
  -1.0455645e+00
  -1.0497935e+00
  -1.0455645e+00
  -1.0455645e+00
  -1.0476790e+00
  -1.0434500e+00
  -1.0455645e+00
  -1.0476790e+00
  -1.0476790e+00
  -1.0434500e+00
  -1.0455645e+00
  -1.0455645e+00
  -1.0476790e+00
  -1.0455645e+00
  -1.0455645e+00
  -1.0476790e+00
  -1.0434500e+00
  -1.0455645e+00
  -1.0455645e+00
  -1.0476790e+00
  -1.0434500e+00
  -1.0455645e+00
  -1.0476790e+00
  -1.0476790e+00
  -1.0455645e+00
  -1.0455645e+00
  -1.0476790e+00
  -1.0413355e+00
  -1.0455645e+00
  -1.0455645e+00
  -1.0476790e+00
  -1.0455645e+00
  -1.0455645e+00
  -1.0455645e+00
  -1.0476790e+00
  -1.0434500e+00
  -1.0455645e+00
  -1.0455645e+00
  -1.0434500e+00
  -1.0434500e+00
  -1.0455645e+00
  -1.0476790e+00
  -1.0455645e+00
  -1.0455645e+00
  -1.0455645e+00
  -1.0476790e+00
  -1.0434500e+00
  -1.0455645e+00
  -1.0476790e+00
  -1.0434500e+00
  -1.0434500e+00
  -1.0455645e+00
  -1.0476790e+00
  -1.0455645e+00
  -1.0455645e+00
  -1.0476790e+00
  -1.0497935e+00
  -1.0434500e+00
  -1.0455645e+00
  -1.0476790e+00
  -1.0434500e+00
  -1.0455645e+00
  -1.0455645e+00
  -1.0476790e+00
  -1.0434500e+00
  -1.0455645e+00
  -1.0455645e+00
  -1.0476790e+00
  -1.0455645e+00
  -1.0455645e+00
  -1.0476790e+00
  -1.0434500e+00
  -1.0434500e+00
  -1.0455645e+00
  -1.0476790e+00
  -1.0434500e+00
  -1.0455645e+00
  -1.0476790e+00
  -1.0476790e+00
  -1.0434500e+00
  -1.0455645e+00
  -1.0455645e+00
  -1.0434500e+00
  -1.0455645e+00
  -1.0455645e+00
  -1.0476790e+00
  -1.0434500e+00
  -1.0455645e+00
  -1.0455645e+00
  -1.0476790e+00
  -1.0434500e+00
  -1.0455645e+00
  -1.0476790e+00
  -1.0434500e+00
  -1.0455645e+00
  -1.0455645e+00
  -1.0476790e+00
  -1.0434500e+00
  -1.0455645e+00
  -1.0476790e+00
  -1.0476790e+00
  -1.0455645e+00
  -1.0455645e+00
  -1.0455645e+00
  -1.0434500e+00
  -1.0455645e+00
  -1.0455645e+00
  -1.0476790e+00
  -1.0434500e+00
  -1.0455645e+00
  -1.0455645e+00
  -1.0476790e+00
  -1.0434500e+00
  -1.0455645e+00
  -1.0476790e+00
  -1.0434500e+00
  -1.0434500e+00
  -1.0455645e+00
  -1.0476790e+00
  -1.0455645e+00
  -1.0434500e+00
  -1.0455645e+00
  -1.0476790e+00
  -1.0434500e+00
  -1.0455645e+00
  -1.0476790e+00
  -1.0434500e+00
  -1.0455645e+00
  -1.0455645e+00
  -1.0476790e+00
  -1.0434500e+00
  -1.0455645e+00
  -1.0455645e+00
  -1.0476790e+00
  -1.0455645e+00
  -1.0455645e+00
  -1.0455645e+00
  -1.0434500e+00
  -1.0455645e+00
  -1.0455645e+00
  -1.0476790e+00
  -1.0434500e+00
  -1.0455645e+00
  -1.0455645e+00
  -1.0476790e+00
  -1.0434500e+00
  -1.0455645e+00
  -1.0455645e+00
  -1.0434500e+00
  -1.0455645e+00
  -1.0455645e+00
  -1.0476790e+00
  -1.0434500e+00
  -1.0455645e+00
  -1.0455645e+00
  -1.0476790e+00
  -1.0455645e+00
  -1.0455645e+00
  -1.0476790e+00
  -1.0434500e+00
  -1.0434500e+00
  -1.0455645e+00
  -1.0476790e+00
  -1.0434500e+00
  -1.0434500e+00
  -1.0455645e+00
  -1.0476790e+00
  -1.0434500e+00
  -1.0455645e+00
  -1.0476790e+00
  -1.0476790e+00
  -1.0455645e+00
  -1.0455645e+00
  -1.0455645e+00
  -1.0434500e+00
  -1.0455645e+00
  -1.0455645e+00
  -1.0476790e+00
  -1.0434500e+00
  -1.0455645e+00
  -1.0455645e+00
  -1.0434500e+00
  -1.0455645e+00
  -1.0455645e+00
  -1.0476790e+00
  -1.0434500e+00
  -1.0455645e+00
  -1.0455645e+00
  -1.0476790e+00
  -1.0434500e+00
  -1.0455645e+00
  -1.0476790e+00
  -1.0434500e+00
  -1.0434500e+00
  -1.0455645e+00
  -1.0476790e+00
  -1.0455645e+00
  -1.0434500e+00
  -1.0476790e+00
  -1.0476790e+00
  -1.0434500e+00
  -1.0455645e+00
  -1.0476790e+00
  -1.0434500e+00
  -1.0455645e+00
  -1.0455645e+00
  -1.0476790e+00
