  -1.0476790e+00
  -1.0497935e+00
  -1.0455645e+00
  -1.0476790e+00
  -1.0476790e+00
  -1.0434500e+00
  -1.0455645e+00
  -1.0476790e+00
  -1.0455645e+00
  -1.0455645e+00
  -1.0476790e+00
  -1.0455645e+00
  -1.0455645e+00
  -1.0455645e+00
  -1.0476790e+00
  -1.0455645e+00
  -1.0455645e+00
  -1.0497935e+00
  -1.0455645e+00
  -1.0455645e+00
  -1.0476790e+00
  -1.0455645e+00
  -1.0455645e+00
  -1.0476790e+00
  -1.0455645e+00
  -1.0455645e+00
  -1.0476790e+00
  -1.0497935e+00
  -1.0476790e+00
  -1.0476790e+00
  -1.0476790e+00
  -1.0455645e+00
  -1.0455645e+00
  -1.0476790e+00
  -1.0455645e+00
  -1.0455645e+00
  -1.0476790e+00
  -1.0455645e+00
  -1.0476790e+00
  -1.0476790e+00
  -1.0497935e+00
  -1.0455645e+00
  -1.0476790e+00
  -1.0476790e+00
  -1.0455645e+00
  -1.0455645e+00
  -1.0476790e+00
  -1.0455645e+00
  -1.0455645e+00
  -1.0476790e+00
  -1.0540224e+00
  -1.0455645e+00
  -1.0476790e+00
  -1.0497935e+00
  -1.0455645e+00
  -1.0455645e+00
  -1.0476790e+00
  -1.0455645e+00
  -1.0476790e+00
  -1.0476790e+00
  -1.0455645e+00
  -1.0455645e+00
  -1.0476790e+00
  -1.0476790e+00
  -1.0455645e+00
  -1.0476790e+00
  -1.0497935e+00
  -1.0455645e+00
  -1.0455645e+00
  -1.0476790e+00
  -1.0455645e+00
  -1.0455645e+00
  -1.0476790e+00
  -1.0455645e+00
  -1.0455645e+00
  -1.0476790e+00
  -1.0497935e+00
  -1.0455645e+00
  -1.0476790e+00
  -1.0476790e+00
  -1.0455645e+00
  -1.0455645e+00
  -1.0476790e+00
  -1.0455645e+00
  -1.0455645e+00
  -1.0476790e+00
  -1.0455645e+00
  -1.0455645e+00
  -1.0476790e+00
  -1.0476790e+00
  -1.0455645e+00
  -1.0455645e+00
  -1.0497935e+00
  -1.0455645e+00
  -1.0455645e+00
  -1.0476790e+00
  -1.0455645e+00
  -1.0476790e+00
  -1.0476790e+00
  -1.0434500e+00
  -1.0455645e+00
  -1.0476790e+00
  -1.0476790e+00
  -1.0455645e+00
  -1.0455645e+00
  -1.0476790e+00
  -1.0455645e+00
  -1.0455645e+00
  -1.0476790e+00
  -1.0455645e+00
  -1.0455645e+00
  -1.0476790e+00
  -1.0455645e+00
  -1.0455645e+00
  -1.0455645e+00
  -1.0476790e+00
  -1.0455645e+00
  -1.0455645e+00
  -1.0476790e+00
  -1.0455645e+00
  -1.0455645e+00
  -1.0476790e+00
  -1.0455645e+00
  -1.0455645e+00
  -1.0476790e+00
  -1.0497935e+00
  -1.0455645e+00
  -1.0455645e+00
  -1.0476790e+00
  -1.0455645e+00
  -1.0476790e+00
  -1.0497935e+00
  -1.0455645e+00
  -1.0476790e+00
  -1.0476790e+00
  -1.0455645e+00
  -1.0455645e+00
  -1.0476790e+00
  -1.0476790e+00
  -1.0455645e+00
  -1.0476790e+00
  -1.0476790e+00
  -1.0455645e+00
  -1.0455645e+00
  -1.0476790e+00
  -1.0455645e+00
  -1.0476790e+00
  -1.0476790e+00
  -1.0455645e+00
  -1.0455645e+00
  -1.0476790e+00
  -1.0497935e+00
  -1.0455645e+00
  -1.0476790e+00
  -1.0497935e+00
  -1.0455645e+00
  -1.0455645e+00
  -1.0476790e+00
  -1.0455645e+00
  -1.0476790e+00
  -1.0476790e+00
  -1.0455645e+00
  -1.0476790e+00
  -1.0476790e+00
  -1.0497935e+00
  -1.0455645e+00
  -1.0476790e+00
  -1.0476790e+00
  -1.0455645e+00
  -1.0455645e+00
  -1.0476790e+00
  -1.0455645e+00
  -1.0476790e+00
  -1.0476790e+00
  -1.0455645e+00
  -1.0455645e+00
  -1.0455645e+00
  -1.0497935e+00
  -1.0455645e+00
  -1.0476790e+00
  -1.0476790e+00
  -1.0455645e+00
  -1.0455645e+00
  -1.0476790e+00
  -1.0455645e+00
  -1.0455645e+00
  -1.0476790e+00
  -1.0455645e+00
  -1.0455645e+00
  -1.0476790e+00
  -1.0476790e+00
  -1.0455645e+00
  -1.0455645e+00
  -1.0476790e+00
  -1.0455645e+00
  -1.0455645e+00
  -1.0476790e+00
  -1.0455645e+00
  -1.0455645e+00
  -1.0476790e+00
  -1.0455645e+00
  -1.0455645e+00
  -1.0455645e+00
  -1.0476790e+00
  -1.0455645e+00
  -1.0455645e+00
  -1.0476790e+00
  -1.0455645e+00
  -1.0455645e+00
  -1.0476790e+00
  -1.0455645e+00
  -1.0455645e+00
  -1.0476790e+00
  -1.0497935e+00
  -1.0455645e+00
  -1.0455645e+00
  -1.0476790e+00
  -1.0455645e+00
  -1.0476790e+00
  -1.0476790e+00
  -1.0455645e+00
  -1.0455645e+00
  -1.0476790e+00
  -1.0455645e+00
  -1.0455645e+00
  -1.0476790e+00
  -1.0476790e+00
  -1.0455645e+00
  -1.0476790e+00
  -1.0476790e+00
  -1.0455645e+00
  -1.0476790e+00
  -1.0476790e+00
  -1.0455645e+00
  -1.0455645e+00
  -1.0476790e+00
  -1.0455645e+00
  -1.0455645e+00
  -1.0476790e+00
  -1.0497935e+00
  -1.0455645e+00
  -1.0476790e+00
  -1.0476790e+00
  -1.0455645e+00
  -1.0455645e+00
  -1.0497935e+00
  -1.0455645e+00
  -1.0455645e+00
  -1.0476790e+00
  -1.0455645e+00
  -1.0455645e+00
  -1.0476790e+00
  -1.0497935e+00
  -1.0455645e+00
  -1.0476790e+00
  -1.0476790e+00
  -1.0455645e+00
  -1.0455645e+00
  -1.0476790e+00
  -1.0455645e+00
  -1.0455645e+00
  -1.0476790e+00
  -1.0434500e+00
  -1.0455645e+00
  -1.0476790e+00
  -1.0476790e+00
  -1.0455645e+00
  -1.0455645e+00
  -1.0476790e+00
  -1.0455645e+00
  -1.0476790e+00
  -1.0476790e+00
  -1.0455645e+00
  -1.0455645e+00
  -1.0476790e+00
  -1.0455645e+00
  -1.0455645e+00
  -1.0476790e+00
  -1.0497935e+00
  -1.0455645e+00
  -1.0476790e+00
  -1.0476790e+00
  -1.0455645e+00
  -1.0455645e+00
  -1.0476790e+00
  -1.0455645e+00
  -1.0455645e+00
  -1.0476790e+00
  -1.0519080e+00
  -1.0455645e+00
  -1.0476790e+00
  -1.0476790e+00
  -1.0455645e+00
  -1.0476790e+00
  -1.0476790e+00
  -1.0455645e+00
  -1.0476790e+00
  -1.0476790e+00
  -1.0434500e+00
  -1.0476790e+00
  -1.0476790e+00
  -1.0519080e+00
  -1.0455645e+00
  -1.0476790e+00
  -1.0476790e+00
  -1.0455645e+00
  -1.0476790e+00
  -1.0476790e+00
  -1.0455645e+00
  -1.0476790e+00
  -1.0476790e+00
  -1.0455645e+00
  -1.0455645e+00
  -1.0476790e+00
  -1.0497935e+00
  -1.0455645e+00
  -1.0476790e+00
  -1.0476790e+00
  -1.0455645e+00
  -1.0476790e+00
  -1.0476790e+00
  -1.0455645e+00
  -1.0476790e+00
  -1.0476790e+00
  -1.0455645e+00
  -1.0455645e+00
  -1.0476790e+00
  -1.0476790e+00
  -1.0455645e+00
  -1.0455645e+00
  -1.0497935e+00
  -1.0455645e+00
  -1.0455645e+00
  -1.0476790e+00
  -1.0455645e+00
  -1.0455645e+00
  -1.0476790e+00
  -1.0455645e+00
  -1.0455645e+00
  -1.0476790e+00
  -1.0476790e+00
  -1.0455645e+00
  -1.0476790e+00
  -1.0476790e+00
  -1.0455645e+00
  -1.0476790e+00
  -1.0476790e+00
  -1.0455645e+00
  -1.0455645e+00
  -1.0476790e+00
  -1.0455645e+00
  -1.0455645e+00
  -1.0476790e+00
  -1.0476790e+00
  -1.0455645e+00
  -1.0476790e+00
  -1.0476790e+00
  -1.0455645e+00
  -1.0455645e+00
  -1.0476790e+00
  -1.0455645e+00
  -1.0476790e+00
  -1.0476790e+00
  -1.0455645e+00
  -1.0455645e+00
  -1.0476790e+00
  -1.0476790e+00
  -1.0455645e+00
  -1.0455645e+00
  -1.0497935e+00
  -1.0455645e+00
  -1.0476790e+00
  -1.0476790e+00
  -1.0455645e+00
  -1.0455645e+00
  -1.0476790e+00
  -1.0519080e+00
  -1.0455645e+00
  -1.0476790e+00
  -1.0476790e+00
  -1.0455645e+00
  -1.0476790e+00
  -1.0476790e+00
  -1.0455645e+00
  -1.0476790e+00
  -1.0476790e+00
  -1.0455645e+00
  -1.0455645e+00
  -1.0476790e+00
  -1.0497935e+00
  -1.0455645e+00
  -1.0455645e+00
  -1.0476790e+00
  -1.0455645e+00
  -1.0455645e+00
  -1.0476790e+00
  -1.0455645e+00
  -1.0455645e+00
  -1.0476790e+00
  -1.0455645e+00
  -1.0455645e+00
  -1.0476790e+00
  -1.0476790e+00
  -1.0455645e+00
  -1.0476790e+00
  -1.0476790e+00
  -1.0455645e+00
  -1.0476790e+00
  -1.0476790e+00
  -1.0455645e+00
  -1.0455645e+00
  -1.0476790e+00
  -1.0455645e+00
  -1.0455645e+00
  -1.0476790e+00
  -1.0497935e+00
  -1.0455645e+00
  -1.0455645e+00
  -1.0476790e+00
  -1.0455645e+00
  -1.0476790e+00
  -1.0476790e+00
  -1.0455645e+00
  -1.0455645e+00
  -1.0476790e+00
  -1.0455645e+00
  -1.0455645e+00
  -1.0476790e+00
  -1.0476790e+00
  -1.0455645e+00
  -1.0455645e+00
  -1.0476790e+00
  -1.0455645e+00
  -1.0455645e+00
  -1.0476790e+00
  -1.0455645e+00
  -1.0476790e+00
  -1.0476790e+00
  -1.0455645e+00
  -1.0476790e+00
  -1.0455645e+00
  -1.0476790e+00
  -1.0455645e+00
  -1.0455645e+00
  -1.0497935e+00
  -1.0455645e+00
  -1.0476790e+00
  -1.0455645e+00
  -1.0455645e+00
  -1.0455645e+00
  -1.0476790e+00
  -1.0455645e+00
  -1.0455645e+00
  -1.0455645e+00
  -1.0497935e+00
  -1.0455645e+00
  -1.0455645e+00
  -1.0476790e+00
  -1.0455645e+00
  -1.0455645e+00
  -1.0476790e+00
  -1.0455645e+00
  -1.0455645e+00
  -1.0476790e+00
  -1.0497935e+00
  -1.0455645e+00
  -1.0476790e+00
  -1.0476790e+00
  -1.0455645e+00
  -1.0476790e+00
  -1.0476790e+00
  -1.0455645e+00
  -1.0476790e+00
  -1.0476790e+00
  -1.0455645e+00
  -1.0434500e+00
  -1.0476790e+00
  -1.0476790e+00
  -1.0455645e+00
  -1.0476790e+00
  -1.0476790e+00
  -1.0455645e+00
  -1.0476790e+00
  -1.0476790e+00
  -1.0455645e+00
  -1.0455645e+00
  -1.0476790e+00
  -1.0455645e+00
  -1.0455645e+00
  -1.0476790e+00
  -1.0497935e+00
  -1.0455645e+00
  -1.0476790e+00
  -1.0476790e+00
  -1.0455645e+00
  -1.0476790e+00
  -1.0476790e+00
  -1.0455645e+00
  -1.0476790e+00
  -1.0476790e+00
  -1.0455645e+00
  -1.0455645e+00
  -1.0476790e+00
  -1.0476790e+00
  -1.0455645e+00
  -1.0455645e+00
  -1.0476790e+00
  -1.0434500e+00
  -1.0476790e+00
  -1.0497935e+00
  -1.0455645e+00
  -1.0455645e+00
  -1.0476790e+00
  -1.0455645e+00
  -1.0455645e+00
  -1.0476790e+00
  -1.0476790e+00
  -1.0455645e+00
  -1.0476790e+00
  -1.0476790e+00
  -1.0455645e+00
  -1.0455645e+00
  -1.0476790e+00
  -1.0455645e+00
  -1.0476790e+00
  -1.0476790e+00
  -1.0434500e+00
  -1.0455645e+00
  -1.0455645e+00
  -1.0476790e+00
  -1.0455645e+00
  -1.0455645e+00
  -1.0476790e+00
  -1.0455645e+00
  -1.0455645e+00
  -1.0476790e+00
  -1.0455645e+00
  -1.0476790e+00
  -1.0455645e+00
  -1.0540224e+00
  -1.0455645e+00
  -1.0455645e+00
  -1.0476790e+00
  -1.0455645e+00
  -1.0455645e+00
  -1.0476790e+00
  -1.0455645e+00
  -1.0455645e+00
  -1.0476790e+00
  -1.0455645e+00
  -1.0349921e+00
  -1.0476790e+00
  -1.0476790e+00
  -1.0476790e+00
  -1.0476790e+00
  -1.0476790e+00
  -1.0455645e+00
  -1.0455645e+00
  -1.0476790e+00
  -1.0455645e+00
  -1.0455645e+00
  -1.0476790e+00
  -1.0455645e+00
  -1.0455645e+00
  -1.0476790e+00
  -1.0476790e+00
  -1.0455645e+00
  -1.0476790e+00
  -1.0497935e+00
  -1.0455645e+00
  -1.0476790e+00
  -1.0476790e+00
  -1.0455645e+00
  -1.0455645e+00
  -1.0476790e+00
  -1.0455645e+00
  -1.0455645e+00
  -1.0476790e+00
  -1.0476790e+00
  -1.0455645e+00
  -1.0476790e+00
  -1.0476790e+00
  -1.0455645e+00
  -1.0476790e+00
  -1.0476790e+00
  -1.0455645e+00
  -1.0455645e+00
  -1.0476790e+00
  -1.0455645e+00
  -1.0455645e+00
  -1.0455645e+00
  -1.0476790e+00
  -1.0455645e+00
  -1.0476790e+00
  -1.0476790e+00
  -1.0455645e+00
  -1.0455645e+00
  -1.0476790e+00
  -1.0455645e+00
  -1.0455645e+00
  -1.0476790e+00
  -1.0455645e+00
  -1.0455645e+00
  -1.0476790e+00
  -1.0497935e+00
  -1.0455645e+00
  -1.0455645e+00
  -1.0476790e+00
  -1.0455645e+00
  -1.0455645e+00
  -1.0476790e+00
  -1.0455645e+00
  -1.0455645e+00
  -1.0476790e+00
  -1.0497935e+00
  -1.0455645e+00
  -1.0455645e+00
  -1.0476790e+00
  -1.0455645e+00
  -1.0476790e+00
  -1.0476790e+00
  -1.0455645e+00
  -1.0476790e+00
  -1.0476790e+00
  -1.0434500e+00
  -1.0455645e+00
  -1.0455645e+00
  -1.0476790e+00
  -1.0455645e+00
  -1.0455645e+00
  -1.0476790e+00
  -1.0455645e+00
  -1.0476790e+00
  -1.0476790e+00
  -1.0455645e+00
  -1.0455645e+00
  -1.0476790e+00
  -1.0455645e+00
  -1.0455645e+00
  -1.0476790e+00
  -1.0476790e+00
  -1.0455645e+00
  -1.0476790e+00
  -1.0497935e+00
  -1.0455645e+00
  -1.0476790e+00
  -1.0476790e+00
  -1.0434500e+00
  -1.0455645e+00
  -1.0476790e+00
  -1.0434500e+00
  -1.0455645e+00
  -1.0455645e+00
  -1.0497935e+00
  -1.0455645e+00
  -1.0476790e+00
  -1.0476790e+00
  -1.0455645e+00
  -1.0476790e+00
  -1.0476790e+00
  -1.0455645e+00
  -1.0455645e+00
  -1.0476790e+00
  -1.0455645e+00
  -1.0455645e+00
  -1.0476790e+00
  -1.0497935e+00
  -1.0455645e+00
  -1.0455645e+00
  -1.0497935e+00
  -1.0455645e+00
  -1.0455645e+00
  -1.0476790e+00
  -1.0455645e+00
  -1.0455645e+00
  -1.0476790e+00
  -1.0455645e+00
  -1.0476790e+00
  -1.0476790e+00
  -1.0497935e+00
  -1.0434500e+00
  -1.0455645e+00
  -1.0476790e+00
  -1.0455645e+00
  -1.0476790e+00
  -1.0476790e+00
  -1.0455645e+00
  -1.0476790e+00
  -1.0476790e+00
  -1.0519080e+00
  -1.0455645e+00
  -1.0476790e+00
  -1.0476790e+00
  -1.0455645e+00
  -1.0455645e+00
  -1.0476790e+00
  -1.0455645e+00
  -1.0476790e+00
  -1.0476790e+00
  -1.0434500e+00
  -1.0455645e+00
  -1.0455645e+00
  -1.0476790e+00
  -1.0455645e+00
  -1.0455645e+00
  -1.0476790e+00
  -1.0455645e+00
  -1.0455645e+00
  -1.0476790e+00
  -1.0455645e+00
  -1.0455645e+00
  -1.0476790e+00
  -1.0455645e+00
  -1.0455645e+00
  -1.0476790e+00
  -1.0497935e+00
  -1.0455645e+00
  -1.0476790e+00
  -1.0476790e+00
  -1.0455645e+00
  -1.0476790e+00
  -1.0476790e+00
  -1.0455645e+00
  -1.0455645e+00
  -1.0476790e+00
  -1.0434500e+00
  -1.0455645e+00
  -1.0476790e+00
  -1.0476790e+00
  -1.0455645e+00
  -1.0476790e+00
  -1.0476790e+00
  -1.0455645e+00
  -1.0476790e+00
  -1.0476790e+00
  -1.0455645e+00
  -1.0455645e+00
  -1.0476790e+00
  -1.0434500e+00
  -1.0455645e+00
  -1.0476790e+00
  -1.0476790e+00
  -1.0455645e+00
  -1.0476790e+00
  -1.0476790e+00
  -1.0455645e+00
  -1.0455645e+00
  -1.0476790e+00
  -1.0455645e+00
  -1.0455645e+00
  -1.0476790e+00
  -1.0455645e+00
  -1.0455645e+00
  -1.0455645e+00
  -1.0497935e+00
  -1.0455645e+00
  -1.0455645e+00
  -1.0476790e+00
  -1.0455645e+00
  -1.0455645e+00
  -1.0476790e+00
  -1.0434500e+00
  -1.0455645e+00
  -1.0476790e+00
  -1.0540224e+00
  -1.0455645e+00
  -1.0455645e+00
  -1.0497935e+00
  -1.0455645e+00
  -1.0455645e+00
  -1.0497935e+00
  -1.0455645e+00
  -1.0455645e+00
  -1.0476790e+00
  -1.0455645e+00
  -1.0476790e+00
  -1.0476790e+00
  -1.0476790e+00
  -1.0455645e+00
  -1.0476790e+00
  -1.0476790e+00
  -1.0455645e+00
  -1.0455645e+00
  -1.0476790e+00
  -1.0455645e+00
  -1.0455645e+00
  -1.0476790e+00
  -1.0455645e+00
  -1.0455645e+00
  -1.0476790e+00
  -1.0497935e+00
  -1.0455645e+00
  -1.0476790e+00
  -1.0497935e+00
  -1.0455645e+00
  -1.0476790e+00
  -1.0455645e+00
  -1.0455645e+00
  -1.0455645e+00
  -1.0476790e+00
  -1.0455645e+00
  -1.0455645e+00
  -1.0476790e+00
  -1.0476790e+00
  -1.0455645e+00
  -1.0476790e+00
  -1.0476790e+00
  -1.0455645e+00
  -1.0455645e+00
  -1.0476790e+00
  -1.0455645e+00
  -1.0455645e+00
  -1.0476790e+00
  -1.0455645e+00
  -1.0476790e+00
  -1.0476790e+00
  -1.0476790e+00
  -1.0455645e+00
  -1.0476790e+00
  -1.0476790e+00
  -1.0455645e+00
  -1.0455645e+00
  -1.0476790e+00
  -1.0455645e+00
  -1.0455645e+00
  -1.0476790e+00
  -1.0519080e+00
  -1.0455645e+00
  -1.0455645e+00
  -1.0476790e+00
  -1.0455645e+00
  -1.0476790e+00
  -1.0476790e+00
  -1.0455645e+00
  -1.0476790e+00
  -1.0476790e+00
  -1.0434500e+00
  -1.0455645e+00
  -1.0476790e+00
  -1.0476790e+00
  -1.0455645e+00
  -1.0455645e+00
  -1.0476790e+00
  -1.0455645e+00
  -1.0455645e+00
  -1.0476790e+00
  -1.0455645e+00
  -1.0455645e+00
  -1.0476790e+00
  -1.0455645e+00
  -1.0455645e+00
  -1.0476790e+00
  -1.0497935e+00
  -1.0455645e+00
  -1.0476790e+00
  -1.0497935e+00
  -1.0455645e+00
  -1.0455645e+00
  -1.0476790e+00
  -1.0455645e+00
  -1.0476790e+00
  -1.0455645e+00
  -1.0455645e+00
  -1.0455645e+00
  -1.0476790e+00
  -1.0497935e+00
  -1.0455645e+00
  -1.0476790e+00
  -1.0497935e+00
  -1.0455645e+00
  -1.0476790e+00
  -1.0476790e+00
  -1.0455645e+00
  -1.0455645e+00
  -1.0476790e+00
  -1.0455645e+00
  -1.0476790e+00
  -1.0476790e+00
  -1.0476790e+00
  -1.0455645e+00
  -1.0455645e+00
  -1.0476790e+00
  -1.0455645e+00
  -1.0455645e+00
  -1.0476790e+00
  -1.0455645e+00
  -1.0455645e+00
  -1.0476790e+00
  -1.0455645e+00
  -1.0455645e+00
  -1.0476790e+00
  -1.0497935e+00
  -1.0455645e+00
  -1.0476790e+00
  -1.0476790e+00
  -1.0455645e+00
  -1.0455645e+00
  -1.0476790e+00
  -1.0455645e+00
  -1.0455645e+00
  -1.0497935e+00
  -1.0476790e+00
  -1.0455645e+00
  -1.0476790e+00
  -1.0497935e+00
  -1.0455645e+00
  -1.0455645e+00
  -1.0476790e+00
  -1.0455645e+00
  -1.0455645e+00
  -1.0476790e+00
  -1.0434500e+00
  -1.0455645e+00
  -1.0476790e+00
  -1.0519080e+00
  -1.0455645e+00
  -1.0476790e+00
  -1.0476790e+00
  -1.0455645e+00
  -1.0455645e+00
  -1.0476790e+00
  -1.0455645e+00
  -1.0476790e+00
  -1.0476790e+00
  -1.0455645e+00
  -1.0455645e+00
  -1.0455645e+00
  -1.0497935e+00
  -1.0476790e+00
  -1.0455645e+00
  -1.0497935e+00
  -1.0455645e+00
  -1.0455645e+00
  -1.0476790e+00
  -1.0455645e+00
  -1.0476790e+00
  -1.0476790e+00
  -1.0455645e+00
  -1.0455645e+00
  -1.0476790e+00
  -1.0476790e+00
  -1.0455645e+00
  -1.0455645e+00
  -1.0476790e+00
  -1.0455645e+00
  -1.0455645e+00
  -1.0476790e+00
  -1.0455645e+00
  -1.0455645e+00
  -1.0476790e+00
  -1.0434500e+00
  -1.0455645e+00
  -1.0476790e+00
  -1.0476790e+00
  -1.0455645e+00
  -1.0476790e+00
  -1.0476790e+00
  -1.0455645e+00
  -1.0455645e+00
  -1.0476790e+00
  -1.0455645e+00
  -1.0455645e+00
  -1.0476790e+00
  -1.0455645e+00
  -1.0455645e+00
  -1.0455645e+00
  -1.0476790e+00
  -1.0476790e+00
  -1.0476790e+00
  -1.0476790e+00
  -1.0455645e+00
  -1.0476790e+00
  -1.0476790e+00
  -1.0455645e+00
  -1.0476790e+00
  -1.0455645e+00
  -1.0455645e+00
  -1.0455645e+00
  -1.0476790e+00
  -1.0476790e+00
  -1.0455645e+00
  -1.0455645e+00
  -1.0476790e+00
  -1.0434500e+00
  -1.0455645e+00
  -1.0476790e+00
  -1.0455645e+00
  -1.0455645e+00
  -1.0476790e+00
  -1.0497935e+00
  -1.0455645e+00
  -1.0455645e+00
  -1.0497935e+00
  -1.0455645e+00
  -1.0455645e+00
  -1.0476790e+00
  -1.0455645e+00
  -1.0455645e+00
  -1.0476790e+00
  -1.0455645e+00
  -1.0455645e+00
  -1.0476790e+00
  -1.0476790e+00
  -1.0455645e+00
  -1.0476790e+00
  -1.0476790e+00
  -1.0455645e+00
  -1.0476790e+00
  -1.0476790e+00
  -1.0455645e+00
  -1.0455645e+00
  -1.0476790e+00
  -1.0455645e+00
  -1.0455645e+00
  -1.0476790e+00
  -1.0497935e+00
  -1.0455645e+00
  -1.0476790e+00
  -1.0476790e+00
  -1.0455645e+00
  -1.0476790e+00
  -1.0476790e+00
  -1.0455645e+00
  -1.0476790e+00
  -1.0476790e+00
  -1.0434500e+00
  -1.0476790e+00
  -1.0476790e+00
  -1.0476790e+00
  -1.0455645e+00
  -1.0476790e+00
  -1.0476790e+00
  -1.0455645e+00
  -1.0476790e+00
  -1.0476790e+00
  -1.0455645e+00
  -1.0455645e+00
  -1.0476790e+00
  -1.0455645e+00
  -1.0455645e+00
  -1.0476790e+00
  -1.0476790e+00
  -1.0455645e+00
  -1.0476790e+00
  -1.0476790e+00
  -1.0455645e+00
  -1.0455645e+00
  -1.0476790e+00
  -1.0455645e+00
  -1.0476790e+00
  -1.0476790e+00
  -1.0540224e+00
  -1.0455645e+00
  -1.0476790e+00
  -1.0476790e+00
  -1.0455645e+00
  -1.0455645e+00
  -1.0476790e+00
  -1.0455645e+00
  -1.0476790e+00
  -1.0476790e+00
  -1.0455645e+00
  -1.0455645e+00
  -1.0476790e+00
  -1.0497935e+00
  -1.0455645e+00
  -1.0476790e+00
  -1.0476790e+00
  -1.0455645e+00
  -1.0476790e+00
  -1.0476790e+00
  -1.0455645e+00
  -1.0455645e+00
  -1.0476790e+00
  -1.0455645e+00
  -1.0455645e+00
  -1.0476790e+00
  -1.0476790e+00
  -1.0455645e+00
  -1.0476790e+00
  -1.0476790e+00
  -1.0455645e+00
  -1.0455645e+00
  -1.0476790e+00
  -1.0434500e+00
  -1.0455645e+00
  -1.0476790e+00
  -1.0455645e+00
  -1.0455645e+00
  -1.0476790e+00
  -1.0497935e+00
  -1.0455645e+00
  -1.0455645e+00
  -1.0476790e+00
  -1.0455645e+00
  -1.0476790e+00
  -1.0497935e+00
  -1.0455645e+00
  -1.0455645e+00
  -1.0476790e+00
  -1.0455645e+00
  -1.0455645e+00
  -1.0476790e+00
  -1.0476790e+00
  -1.0455645e+00
  -1.0455645e+00
  -1.0476790e+00
  -1.0455645e+00
  -1.0476790e+00
  -1.0476790e+00
  -1.0455645e+00
  -1.0455645e+00
  -1.0476790e+00
  -1.0540224e+00
  -1.0455645e+00
  -1.0476790e+00
  -1.0476790e+00
  -1.0455645e+00
  -1.0455645e+00
  -1.0476790e+00
  -1.0455645e+00
  -1.0455645e+00
  -1.0497935e+00
  -1.0455645e+00
  -1.0455645e+00
  -1.0476790e+00
  -1.0497935e+00
  -1.0455645e+00
  -1.0476790e+00
  -1.0476790e+00
  -1.0455645e+00
  -1.0455645e+00
  -1.0476790e+00
  -1.0455645e+00
  -1.0455645e+00
  -1.0476790e+00
  -1.0455645e+00
  -1.0455645e+00
  -1.0476790e+00
  -1.0476790e+00
  -1.0476790e+00
  -1.0476790e+00
  -1.0476790e+00
  -1.0455645e+00
  -1.0476790e+00
  -1.0476790e+00
  -1.0455645e+00
  -1.0455645e+00
  -1.0476790e+00
  -1.0455645e+00
  -1.0455645e+00
  -1.0476790e+00
  -1.0497935e+00
  -1.0476790e+00
  -1.0455645e+00
  -1.0476790e+00
  -1.0455645e+00
  -1.0455645e+00
  -1.0476790e+00
  -1.0455645e+00
  -1.0476790e+00
  -1.0476790e+00
  -1.0434500e+00
  -1.0455645e+00
  -1.0476790e+00
  -1.0476790e+00
  -1.0455645e+00
  -1.0476790e+00
  -1.0476790e+00
  -1.0455645e+00
  -1.0455645e+00
  -1.0476790e+00
  -1.0434500e+00
  -1.0455645e+00
  -1.0476790e+00
  -1.0455645e+00
  -1.0455645e+00
  -1.0476790e+00
  -1.0476790e+00
  -1.0455645e+00
  -1.0455645e+00
  -1.0476790e+00
  -1.0455645e+00
  -1.0455645e+00
  -1.0476790e+00
  -1.0434500e+00
  -1.0476790e+00
  -1.0455645e+00
  -1.0540224e+00
  -1.0455645e+00
  -1.0455645e+00
  -1.0476790e+00
  -1.0455645e+00
  -1.0476790e+00
  -1.0497935e+00
  -1.0455645e+00
  -1.0455645e+00
  -1.0476790e+00
  -1.0455645e+00
  -1.0455645e+00
  -1.0476790e+00
  -1.0497935e+00
  -1.0455645e+00
  -1.0455645e+00
  -1.0476790e+00
  -1.0434500e+00
  -1.0476790e+00
  -1.0476790e+00
  -1.0455645e+00
  -1.0476790e+00
  -1.0476790e+00
  -1.0455645e+00
  -1.0455645e+00
  -1.0455645e+00
  -1.0476790e+00
  -1.0455645e+00
  -1.0476790e+00
  -1.0497935e+00
  -1.0455645e+00
  -1.0476790e+00
  -1.0476790e+00
  -1.0455645e+00
  -1.0455645e+00
  -1.0476790e+00
  -1.0455645e+00
  -1.0455645e+00
  -1.0476790e+00
  -1.0497935e+00
  -1.0455645e+00
  -1.0455645e+00
  -1.0476790e+00
  -1.0455645e+00
  -1.0455645e+00
  -1.0476790e+00
  -1.0455645e+00
  -1.0476790e+00
  -1.0476790e+00
  -1.0455645e+00
  -1.0455645e+00
  -1.0476790e+00
  -1.0476790e+00
  -1.0455645e+00
  -1.0476790e+00
  -1.0476790e+00
  -1.0455645e+00
  -1.0455645e+00
  -1.0476790e+00
  -1.0455645e+00
  -1.0455645e+00
  -1.0476790e+00
  -1.0434500e+00
  -1.0455645e+00
  -1.0455645e+00
  -1.0497935e+00
  -1.0455645e+00
  -1.0455645e+00
  -1.0476790e+00
  -1.0455645e+00
  -1.0455645e+00
  -1.0476790e+00
  -1.0455645e+00
  -1.0455645e+00
  -1.0476790e+00
  -1.0519080e+00
  -1.0455645e+00
  -1.0476790e+00
  -1.0476790e+00
  -1.0455645e+00
  -1.0476790e+00
  -1.0476790e+00
  -1.0455645e+00
  -1.0455645e+00
  -1.0455645e+00
  -1.0434500e+00
  -1.0455645e+00
  -1.0476790e+00
  -1.0476790e+00
  -1.0455645e+00
  -1.0476790e+00
  -1.0476790e+00
  -1.0455645e+00
  -1.0476790e+00
  -1.0476790e+00
  -1.0455645e+00
  -1.0455645e+00
  -1.0476790e+00
  -1.0455645e+00
  -1.0455645e+00
  -1.0476790e+00
  -1.0476790e+00
  -1.0455645e+00
  -1.0476790e+00
  -1.0476790e+00
  -1.0455645e+00
  -1.0476790e+00
  -1.0476790e+00
  -1.0455645e+00
  -1.0455645e+00
  -1.0476790e+00
  -1.0434500e+00
  -1.0455645e+00
  -1.0476790e+00
  -1.0476790e+00
  -1.0455645e+00
  -1.0476790e+00
  -1.0476790e+00
  -1.0455645e+00
  -1.0455645e+00
  -1.0476790e+00
  -1.0434500e+00
  -1.0455645e+00
  -1.0476790e+00
  -1.0434500e+00
  -1.0455645e+00
  -1.0476790e+00
  -1.0476790e+00
  -1.0455645e+00
  -1.0476790e+00
  -1.0476790e+00
  -1.0455645e+00
  -1.0455645e+00
  -1.0476790e+00
  -1.0455645e+00
  -1.0455645e+00
  -1.0476790e+00
  -1.0476790e+00
  -1.0455645e+00
  -1.0476790e+00
  -1.0476790e+00
  -1.0455645e+00
  -1.0455645e+00
  -1.0476790e+00
  -1.0455645e+00
  -1.0455645e+00
  -1.0476790e+00
  -1.0455645e+00
  -1.0455645e+00
  -1.0476790e+00
  -1.0476790e+00
  -1.0476790e+00
  -1.0455645e+00
  -1.0476790e+00
  -1.0455645e+00
  -1.0476790e+00
  -1.0476790e+00
  -1.0455645e+00
  -1.0476790e+00
  -1.0476790e+00
  -1.0455645e+00
  -1.0455645e+00
  -1.0476790e+00
  -1.0497935e+00
  -1.0455645e+00
  -1.0455645e+00
  -1.0497935e+00
  -1.0455645e+00
  -1.0455645e+00
  -1.0476790e+00
  -1.0455645e+00
  -1.0455645e+00
  -1.0476790e+00
  -1.0455645e+00
  -1.0455645e+00
  -1.0476790e+00
  -1.0476790e+00
  -1.0455645e+00
  -1.0476790e+00
  -1.0476790e+00
  -1.0455645e+00
  -1.0455645e+00
  -1.0476790e+00
  -1.0455645e+00
  -1.0455645e+00
  -1.0476790e+00
  -1.0455645e+00
  -1.0455645e+00
  -1.0476790e+00
  -1.0476790e+00
  -1.0455645e+00
  -1.0476790e+00
  -1.0476790e+00
  -1.0455645e+00
  -1.0455645e+00
  -1.0476790e+00
  -1.0455645e+00
  -1.0455645e+00
  -1.0476790e+00
  -1.0540224e+00
  -1.0455645e+00
  -1.0455645e+00
  -1.0476790e+00
  -1.0455645e+00
  -1.0455645e+00
  -1.0476790e+00
  -1.0455645e+00
  -1.0455645e+00
  -1.0476790e+00
  -1.0455645e+00
  -1.0455645e+00
  -1.0476790e+00
  -1.0497935e+00
  -1.0455645e+00
  -1.0476790e+00
  -1.0497935e+00
  -1.0455645e+00
  -1.0476790e+00
  -1.0476790e+00
  -1.0455645e+00
  -1.0476790e+00
  -1.0476790e+00
  -1.0455645e+00
  -1.0455645e+00
  -1.0476790e+00
  -1.0476790e+00
  -1.0455645e+00
  -1.0476790e+00
  -1.0476790e+00
  -1.0455645e+00
  -1.0476790e+00
  -1.0476790e+00
  -1.0455645e+00
  -1.0455645e+00
  -1.0476790e+00
  -1.0455645e+00
  -1.0455645e+00
  -1.0476790e+00
  -1.0497935e+00
  -1.0455645e+00
  -1.0455645e+00
  -1.0476790e+00
  -1.0455645e+00
  -1.0455645e+00
  -1.0476790e+00
  -1.0455645e+00
  -1.0455645e+00
  -1.0476790e+00
  -1.0455645e+00
  -1.0455645e+00
  -1.0476790e+00
  -1.0476790e+00
  -1.0455645e+00
  -1.0455645e+00
  -1.0497935e+00
  -1.0455645e+00
  -1.0455645e+00
  -1.0476790e+00
  -1.0455645e+00
  -1.0476790e+00
  -1.0476790e+00
  -1.0455645e+00
  -1.0455645e+00
  -1.0476790e+00
  -1.0476790e+00
  -1.0455645e+00
  -1.0455645e+00
  -1.0497935e+00
  -1.0455645e+00
  -1.0476790e+00
  -1.0476790e+00
  -1.0455645e+00
  -1.0476790e+00
  -1.0455645e+00
  -1.0476790e+00
  -1.0455645e+00
  -1.0476790e+00
  -1.0476790e+00
  -1.0455645e+00
  -1.0476790e+00
  -1.0476790e+00
  -1.0455645e+00
  -1.0476790e+00
  -1.0476790e+00
  -1.0434500e+00
  -1.0455645e+00
  -1.0476790e+00
  -1.0497935e+00
  -1.0455645e+00
  -1.0455645e+00
  -1.0476790e+00
  -1.0455645e+00
  -1.0476790e+00
  -1.0476790e+00
  -1.0455645e+00
  -1.0455645e+00
  -1.0476790e+00
  -1.0455645e+00
  -1.0455645e+00
  -1.0455645e+00
  -1.0476790e+00
  -1.0455645e+00
  -1.0476790e+00
  -1.0476790e+00
  -1.0455645e+00
  -1.0476790e+00
  -1.0476790e+00
  -1.0455645e+00
  -1.0455645e+00
  -1.0476790e+00
  -1.0455645e+00
  -1.0455645e+00
  -1.0476790e+00
  -1.0476790e+00
  -1.0455645e+00
  -1.0476790e+00
  -1.0476790e+00
  -1.0455645e+00
  -1.0476790e+00
  -1.0476790e+00
  -1.0455645e+00
  -1.0455645e+00
  -1.0476790e+00
  -1.0434500e+00
  -1.0455645e+00
  -1.0476790e+00
  -1.0476790e+00
  -1.0455645e+00
  -1.0476790e+00
  -1.0476790e+00
  -1.0455645e+00
  -1.0455645e+00
  -1.0476790e+00
  -1.0455645e+00
  -1.0455645e+00
  -1.0455645e+00
  -1.0519080e+00
  -1.0455645e+00
  -1.0476790e+00
  -1.0476790e+00
  -1.0455645e+00
  -1.0476790e+00
  -1.0476790e+00
  -1.0455645e+00
  -1.0455645e+00
  -1.0476790e+00
  -1.0434500e+00
  -1.0455645e+00
  -1.0476790e+00
  -1.0497935e+00
  -1.0455645e+00
  -1.0455645e+00
  -1.0497935e+00
  -1.0455645e+00
  -1.0455645e+00
  -1.0476790e+00
  -1.0455645e+00
  -1.0455645e+00
  -1.0476790e+00
  -1.0455645e+00
  -1.0455645e+00
  -1.0476790e+00
  -1.0476790e+00
  -1.0455645e+00
  -1.0476790e+00
  -1.0476790e+00
  -1.0455645e+00
  -1.0455645e+00
  -1.0476790e+00
  -1.0455645e+00
  -1.0455645e+00
  -1.0476790e+00
  -1.0434500e+00
  -1.0455645e+00
  -1.0476790e+00
  -1.0497935e+00
  -1.0455645e+00
  -1.0455645e+00
  -1.0476790e+00
  -1.0455645e+00
  -1.0455645e+00
  -1.0476790e+00
  -1.0455645e+00
  -1.0455645e+00
  -1.0476790e+00
  -1.0455645e+00
  -1.0455645e+00
  -1.0476790e+00
  -1.0476790e+00
  -1.0455645e+00
  -1.0476790e+00
  -1.0497935e+00
  -1.0434500e+00
  -1.0455645e+00
  -1.0476790e+00
  -1.0434500e+00
  -1.0455645e+00
  -1.0476790e+00
  -1.0540224e+00
  -1.0455645e+00
  -1.0476790e+00
  -1.0497935e+00
  -1.0455645e+00
  -1.0476790e+00
  -1.0476790e+00
  -1.0455645e+00
  -1.0476790e+00
  -1.0476790e+00
  -1.0455645e+00
  -1.0455645e+00
  -1.0476790e+00
  -1.0476790e+00
  -1.0455645e+00
  -1.0476790e+00
  -1.0476790e+00
  -1.0455645e+00
  -1.0476790e+00
  -1.0476790e+00
  -1.0455645e+00
  -1.0455645e+00
  -1.0476790e+00
  -1.0455645e+00
  -1.0476790e+00
  -1.0476790e+00
  -1.0497935e+00
  -1.0455645e+00
  -1.0476790e+00
  -1.0476790e+00
  -1.0455645e+00
  -1.0455645e+00
  -1.0476790e+00
  -1.0455645e+00
  -1.0476790e+00
  -1.0476790e+00
  -1.0434500e+00
  -1.0455645e+00
  -1.0476790e+00
  -1.0497935e+00
  -1.0455645e+00
  -1.0455645e+00
  -1.0476790e+00
  -1.0434500e+00
  -1.0455645e+00
  -1.0476790e+00
  -1.0434500e+00
  -1.0455645e+00
  -1.0476790e+00
  -1.0434500e+00
  -1.0455645e+00
  -1.0476790e+00
  -1.0497935e+00
  -1.0455645e+00
  -1.0476790e+00
  -1.0497935e+00
  -1.0455645e+00
  -1.0455645e+00
  -1.0476790e+00
  -1.0455645e+00
  -1.0455645e+00
  -1.0476790e+00
  -1.0519080e+00
  -1.0455645e+00
  -1.0455645e+00
  -1.0476790e+00
  -1.0455645e+00
  -1.0476790e+00
  -1.0476790e+00
  -1.0455645e+00
  -1.0476790e+00
  -1.0476790e+00
  -1.0455645e+00
  -1.0476790e+00
  -1.0476790e+00
  -1.0497935e+00
  -1.0455645e+00
  -1.0455645e+00
  -1.0476790e+00
  -1.0455645e+00
  -1.0476790e+00
  -1.0476790e+00
  -1.0455645e+00
  -1.0455645e+00
  -1.0476790e+00
  -1.0434500e+00
  -1.0455645e+00
  -1.0476790e+00
  -1.0476790e+00
  -1.0434500e+00
  -1.0476790e+00
  -1.0476790e+00
  -1.0455645e+00
  -1.0476790e+00
  -1.0476790e+00
  -1.0455645e+00
  -1.0476790e+00
  -1.0476790e+00
  -1.0434500e+00
  -1.0455645e+00
  -1.0476790e+00
  -1.0476790e+00
  -1.0455645e+00
  -1.0455645e+00
  -1.0476790e+00
  -1.0455645e+00
  -1.0455645e+00
  -1.0455645e+00
  -1.0455645e+00
  -1.0455645e+00
  -1.0476790e+00
  -1.0455645e+00
  -1.0455645e+00
  -1.0455645e+00
  -1.0476790e+00
  -1.0455645e+00
  -1.0455645e+00
  -1.0476790e+00
  -1.0455645e+00
  -1.0476790e+00
  -1.0476790e+00
  -1.0455645e+00
  -1.0455645e+00
  -1.0476790e+00
  -1.0497935e+00
  -1.0455645e+00
  -1.0476790e+00
  -1.0497935e+00
  -1.0455645e+00
  -1.0476790e+00
  -1.0497935e+00
  -1.0455645e+00
  -1.0455645e+00
  -1.0476790e+00
  -1.0455645e+00
  -1.0455645e+00
  -1.0476790e+00
  -1.0497935e+00
  -1.0455645e+00
  -1.0476790e+00
  -1.0476790e+00
  -1.0455645e+00
  -1.0476790e+00
  -1.0476790e+00
  -1.0455645e+00
  -1.0455645e+00
  -1.0476790e+00
  -1.0434500e+00
  -1.0455645e+00
  -1.0476790e+00
  -1.0497935e+00
  -1.0455645e+00
  -1.0476790e+00
  -1.0476790e+00
  -1.0455645e+00
  -1.0455645e+00
  -1.0476790e+00
  -1.0455645e+00
  -1.0455645e+00
  -1.0476790e+00
  -1.0434500e+00
  -1.0455645e+00
  -1.0476790e+00
  -1.0476790e+00
  -1.0455645e+00
  -1.0455645e+00
  -1.0476790e+00
  -1.0455645e+00
  -1.0476790e+00
  -1.0476790e+00
  -1.0455645e+00
  -1.0455645e+00
  -1.0476790e+00
  -1.0519080e+00
  -1.0455645e+00
  -1.0476790e+00
  -1.0476790e+00
  -1.0455645e+00
  -1.0455645e+00
  -1.0476790e+00
  -1.0455645e+00
  -1.0455645e+00
  -1.0476790e+00
  -1.0455645e+00
  -1.0455645e+00
  -1.0476790e+00
  -1.0540224e+00
  -1.0455645e+00
  -1.0455645e+00
  -1.0476790e+00
  -1.0455645e+00
  -1.0455645e+00
  -1.0476790e+00
  -1.0434500e+00
  -1.0455645e+00
  -1.0476790e+00
  -1.0455645e+00
  -1.0455645e+00
  -1.0476790e+00
  -1.0476790e+00
  -1.0455645e+00
  -1.0455645e+00
  -1.0497935e+00
  -1.0455645e+00
  -1.0476790e+00
  -1.0476790e+00
  -1.0455645e+00
  -1.0455645e+00
  -1.0476790e+00
  -1.0455645e+00
  -1.0455645e+00
  -1.0455645e+00
  -1.0476790e+00
  -1.0455645e+00
  -1.0455645e+00
  -1.0476790e+00
  -1.0455645e+00
  -1.0455645e+00
  -1.0476790e+00
  -1.0455645e+00
  -1.0455645e+00
  -1.0476790e+00
  -1.0455645e+00
  -1.0455645e+00
  -1.0476790e+00
  -1.0476790e+00
  -1.0455645e+00
  -1.0476790e+00
  -1.0476790e+00
  -1.0455645e+00
  -1.0455645e+00
  -1.0476790e+00
  -1.0455645e+00
  -1.0455645e+00
  -1.0476790e+00
  -1.0455645e+00
  -1.0455645e+00
  -1.0476790e+00
  -1.0497935e+00
  -1.0455645e+00
  -1.0476790e+00
  -1.0476790e+00
  -1.0455645e+00
  -1.0476790e+00
  -1.0476790e+00
  -1.0434500e+00
  -1.0476790e+00
  -1.0476790e+00
  -1.0476790e+00
  -1.0455645e+00
  -1.0476790e+00
  -1.0497935e+00
  -1.0455645e+00
  -1.0476790e+00
  -1.0476790e+00
  -1.0434500e+00
  -1.0476790e+00
  -1.0476790e+00
  -1.0455645e+00
  -1.0455645e+00
  -1.0476790e+00
  -1.0476790e+00
  -1.0455645e+00
  -1.0476790e+00
  -1.0497935e+00
  -1.0434500e+00
  -1.0455645e+00
  -1.0476790e+00
  -1.0455645e+00
  -1.0455645e+00
  -1.0476790e+00
  -1.0455645e+00
  -1.0455645e+00
  -1.0476790e+00
  -1.0476790e+00
  -1.0455645e+00
  -1.0455645e+00
  -1.0476790e+00
  -1.0455645e+00
  -1.0455645e+00
  -1.0476790e+00
  -1.0455645e+00
  -1.0455645e+00
  -1.0476790e+00
  -1.0455645e+00
  -1.0455645e+00
  -1.0476790e+00
  -1.0476790e+00
  -1.0455645e+00
  -1.0476790e+00
  -1.0476790e+00
  -1.0455645e+00
  -1.0455645e+00
  -1.0476790e+00
  -1.0455645e+00
  -1.0476790e+00
  -1.0476790e+00
  -1.0476790e+00
  -1.0455645e+00
  -1.0476790e+00
  -1.0476790e+00
  -1.0455645e+00
  -1.0455645e+00
  -1.0497935e+00
  -1.0455645e+00
  -1.0455645e+00
  -1.0476790e+00
  -1.0455645e+00
  -1.0455645e+00
  -1.0476790e+00
  -1.0476790e+00
  -1.0455645e+00
  -1.0476790e+00
  -1.0497935e+00
  -1.0455645e+00
  -1.0455645e+00
  -1.0476790e+00
  -1.0455645e+00
  -1.0455645e+00
  -1.0476790e+00
  -1.0455645e+00
  -1.0455645e+00
  -1.0455645e+00
  -1.0497935e+00
  -1.0455645e+00
  -1.0455645e+00
  -1.0497935e+00
  -1.0455645e+00
  -1.0476790e+00
  -1.0476790e+00
  -1.0455645e+00
  -1.0455645e+00
  -1.0476790e+00
  -1.0434500e+00
  -1.0455645e+00
  -1.0476790e+00
  -1.0476790e+00
  -1.0455645e+00
  -1.0476790e+00
  -1.0476790e+00
  -1.0434500e+00
  -1.0455645e+00
  -1.0476790e+00
  -1.0455645e+00
  -1.0455645e+00
  -1.0476790e+00
  -1.0497935e+00
  -1.0455645e+00
  -1.0476790e+00
  -1.0476790e+00
  -1.0455645e+00
  -1.0455645e+00
  -1.0476790e+00
  -1.0455645e+00
  -1.0476790e+00
  -1.0476790e+00
  -1.0455645e+00
  -1.0455645e+00
  -1.0476790e+00
  -1.0519080e+00
  -1.0455645e+00
  -1.0476790e+00
  -1.0497935e+00
  -1.0455645e+00
  -1.0476790e+00
  -1.0476790e+00
  -1.0455645e+00
  -1.0476790e+00
  -1.0476790e+00
  -1.0434500e+00
  -1.0455645e+00
  -1.0476790e+00
  -1.0476790e+00
  -1.0455645e+00
  -1.0476790e+00
  -1.0476790e+00
  -1.0455645e+00
  -1.0455645e+00
  -1.0497935e+00
  -1.0455645e+00
  -1.0455645e+00
  -1.0476790e+00
  -1.0455645e+00
  -1.0455645e+00
  -1.0476790e+00
  -1.0497935e+00
  -1.0455645e+00
  -1.0476790e+00
  -1.0476790e+00
  -1.0455645e+00
  -1.0455645e+00
  -1.0476790e+00
  -1.0455645e+00
  -1.0455645e+00
  -1.0476790e+00
  -1.0519080e+00
  -1.0455645e+00
  -1.0476790e+00
  -1.0476790e+00
  -1.0455645e+00
  -1.0476790e+00
  -1.0476790e+00
  -1.0455645e+00
  -1.0455645e+00
  -1.0476790e+00
  -1.0455645e+00
  -1.0455645e+00
  -1.0455645e+00
  -1.0497935e+00
  -1.0455645e+00
  -1.0476790e+00
  -1.0476790e+00
  -1.0455645e+00
  -1.0476790e+00
  -1.0476790e+00
  -1.0455645e+00
  -1.0455645e+00
  -1.0476790e+00
  -1.0434500e+00
  -1.0455645e+00
  -1.0476790e+00
  -1.0476790e+00
  -1.0455645e+00
  -1.0455645e+00
  -1.0476790e+00
  -1.0455645e+00
  -1.0455645e+00
  -1.0476790e+00
  -1.0455645e+00
  -1.0455645e+00
  -1.0476790e+00
  -1.0455645e+00
  -1.0455645e+00
  -1.0476790e+00
  -1.0476790e+00
  -1.0455645e+00
  -1.0476790e+00
  -1.0476790e+00
  -1.0455645e+00
  -1.0455645e+00
  -1.0476790e+00
  -1.0455645e+00
  -1.0455645e+00
  -1.0476790e+00
  -1.0497935e+00
  -1.0455645e+00
  -1.0455645e+00
  -1.0476790e+00
  -1.0455645e+00
  -1.0455645e+00
  -1.0476790e+00
  -1.0455645e+00
  -1.0476790e+00
  -1.0476790e+00
  -1.0455645e+00
  -1.0476790e+00
  -1.0476790e+00
  -1.0455645e+00
  -1.0455645e+00
  -1.0455645e+00
  -1.0476790e+00
  -1.0455645e+00
  -1.0476790e+00
  -1.0476790e+00
  -1.0455645e+00
  -1.0455645e+00
  -1.0476790e+00
  -1.0455645e+00
  -1.0476790e+00
  -1.0476790e+00
  -1.0497935e+00
  -1.0455645e+00
  -1.0476790e+00
  -1.0476790e+00
  -1.0455645e+00
  -1.0455645e+00
  -1.0476790e+00
  -1.0455645e+00
  -1.0455645e+00
  -1.0476790e+00
  -1.0455645e+00
  -1.0476790e+00
  -1.0476790e+00
  -1.0476790e+00
  -1.0455645e+00
  -1.0455645e+00
  -1.0497935e+00
  -1.0434500e+00
  -1.0455645e+00
  -1.0476790e+00
  -1.0455645e+00
  -1.0455645e+00
  -1.0476790e+00
  -1.0434500e+00
  -1.0455645e+00
  -1.0476790e+00
  -1.0497935e+00
  -1.0455645e+00
  -1.0476790e+00
  -1.0476790e+00
  -1.0455645e+00
  -1.0455645e+00
  -1.0476790e+00
  -1.0455645e+00
  -1.0455645e+00
  -1.0476790e+00
  -1.0434500e+00
  -1.0455645e+00
  -1.0455645e+00
  -1.0497935e+00
  -1.0455645e+00
  -1.0476790e+00
  -1.0476790e+00
  -1.0455645e+00
  -1.0455645e+00
  -1.0476790e+00
  -1.0455645e+00
  -1.0455645e+00
  -1.0455645e+00
  -1.0497935e+00
  -1.0455645e+00
  -1.0455645e+00
  -1.0476790e+00
  -1.0455645e+00
  -1.0455645e+00
  -1.0476790e+00
  -1.0455645e+00
  -1.0455645e+00
  -1.0476790e+00
  -1.0434500e+00
  -1.0455645e+00
  -1.0476790e+00
  -1.0497935e+00
  -1.0455645e+00
  -1.0476790e+00
  -1.0476790e+00
  -1.0455645e+00
  -1.0455645e+00
  -1.0476790e+00
  -1.0455645e+00
  -1.0476790e+00
  -1.0455645e+00
  -1.0455645e+00
  -1.0455645e+00
  -1.0476790e+00
  -1.0497935e+00
  -1.0455645e+00
  -1.0476790e+00
  -1.0476790e+00
  -1.0455645e+00
  -1.0455645e+00
  -1.0476790e+00
  -1.0455645e+00
  -1.0455645e+00
  -1.0476790e+00
  -1.0434500e+00
  -1.0455645e+00
  -1.0455645e+00
  -1.0497935e+00
  -1.0455645e+00
  -1.0455645e+00
  -1.0476790e+00
  -1.0455645e+00
  -1.0667094e+00
  -1.0476790e+00
  -1.0455645e+00
  -1.0455645e+00
  -1.0476790e+00
  -1.0476790e+00
  -1.0455645e+00
  -1.0455645e+00
  -1.0476790e+00
  -1.0476790e+00
  -1.0476790e+00
  -1.0476790e+00
  -1.0455645e+00
  -1.0455645e+00
  -1.0476790e+00
  -1.0455645e+00
  -1.0455645e+00
  -1.0476790e+00
  -1.0497935e+00
  -1.0455645e+00
  -1.0476790e+00
  -1.0476790e+00
  -1.0455645e+00
  -1.0455645e+00
  -1.0476790e+00
  -1.0455645e+00
  -1.0476790e+00
  -1.0476790e+00
  -1.0455645e+00
  -1.0455645e+00
  -1.0476790e+00
  -1.0497935e+00
  -1.0455645e+00
  -1.0455645e+00
  -1.0497935e+00
  -1.0455645e+00
  -1.0476790e+00
  -1.0476790e+00
  -1.0455645e+00
  -1.0476790e+00
  -1.0476790e+00
  -1.0434500e+00
  -1.0455645e+00
  -1.0476790e+00
  -1.0476790e+00
  -1.0455645e+00
  -1.0455645e+00
  -1.0476790e+00
  -1.0455645e+00
  -1.0455645e+00
  -1.0476790e+00
  -1.0455645e+00
  -1.0455645e+00
  -1.0476790e+00
  -1.0497935e+00
  -1.0455645e+00
  -1.0476790e+00
  -1.0476790e+00
  -1.0455645e+00
  -1.0476790e+00
  -1.0476790e+00
  -1.0455645e+00
  -1.0455645e+00
  -1.0476790e+00
  -1.0455645e+00
  -1.0476790e+00
  -1.0476790e+00
  -1.0497935e+00
  -1.0455645e+00
  -1.0455645e+00
  -1.0497935e+00
  -1.0455645e+00
  -1.0455645e+00
  -1.0476790e+00
  -1.0455645e+00
  -1.0455645e+00
  -1.0476790e+00
  -1.0455645e+00
  -1.0455645e+00
  -1.0476790e+00
  -1.0497935e+00
  -1.0455645e+00
  -1.0476790e+00
  -1.0497935e+00
  -1.0455645e+00
  -1.0455645e+00
  -1.0476790e+00
  -1.0455645e+00
  -1.0455645e+00
  -1.0476790e+00
  -1.0455645e+00
  -1.0455645e+00
  -1.0476790e+00
  -1.0497935e+00
  -1.0455645e+00
  -1.0455645e+00
  -1.0476790e+00
  -1.0455645e+00
  -1.0455645e+00
  -1.0476790e+00
  -1.0455645e+00
  -1.0476790e+00
  -1.0476790e+00
  -1.0434500e+00
  -1.0455645e+00
  -1.0455645e+00
  -1.0476790e+00
  -1.0455645e+00
  -1.0476790e+00
  -1.0476790e+00
  -1.0455645e+00
  -1.0476790e+00
  -1.0476790e+00
  -1.0455645e+00
  -1.0455645e+00
  -1.0476790e+00
  -1.0476790e+00
  -1.0455645e+00
  -1.0455645e+00
  -1.0497935e+00
  -1.0455645e+00
  -1.0476790e+00
  -1.0476790e+00
  -1.0455645e+00
  -1.0476790e+00
  -1.0476790e+00
  -1.0455645e+00
  -1.0455645e+00
  -1.0476790e+00
  -1.0476790e+00
  -1.0455645e+00
  -1.0476790e+00
  -1.0476790e+00
  -1.0455645e+00
  -1.0455645e+00
  -1.0476790e+00
  -1.0455645e+00
  -1.0455645e+00
  -1.0476790e+00
  -1.0434500e+00
  -1.0455645e+00
  -1.0476790e+00
  -1.0497935e+00
  -1.0455645e+00
  -1.0476790e+00
  -1.0476790e+00
  -1.0455645e+00
  -1.0476790e+00
  -1.0476790e+00
  -1.0455645e+00
  -1.0455645e+00
  -1.0476790e+00
  -1.0455645e+00
  -1.0455645e+00
  -1.0476790e+00
  -1.0476790e+00
  -1.0455645e+00
  -1.0476790e+00
  -1.0476790e+00
  -1.0455645e+00
  -1.0455645e+00
  -1.0476790e+00
  -1.0455645e+00
  -1.0455645e+00
  -1.0476790e+00
  -1.0455645e+00
  -1.0455645e+00
  -1.0476790e+00
  -1.0476790e+00
  -1.0455645e+00
  -1.0476790e+00
  -1.0476790e+00
  -1.0455645e+00
  -1.0455645e+00
  -1.0476790e+00
  -1.0455645e+00
  -1.0455645e+00
  -1.0476790e+00
  -1.0455645e+00
  -1.0455645e+00
  -1.0455645e+00
  -1.0476790e+00
  -1.0455645e+00
  -1.0455645e+00
  -1.0476790e+00
  -1.0455645e+00
  -1.0455645e+00
  -1.0476790e+00
  -1.0455645e+00
  -1.0455645e+00
  -1.0476790e+00
  -1.0497935e+00
  -1.0455645e+00
  -1.0476790e+00
  -1.0476790e+00
  -1.0455645e+00
  -1.0476790e+00
  -1.0476790e+00
  -1.0455645e+00
  -1.0455645e+00
  -1.0476790e+00
  -1.0455645e+00
  -1.0455645e+00
  -1.0476790e+00
  -1.0476790e+00
  -1.0455645e+00
  -1.0476790e+00
  -1.0476790e+00
  -1.0455645e+00
  -1.0476790e+00
  -1.0476790e+00
  -1.0455645e+00
  -1.0455645e+00
  -1.0476790e+00
  -1.0434500e+00
  -1.0455645e+00
  -1.0476790e+00
  -1.0497935e+00
  -1.0455645e+00
  -1.0476790e+00
  -1.0476790e+00
  -1.0455645e+00
  -1.0455645e+00
  -1.0476790e+00
  -1.0455645e+00
  -1.0476790e+00
  -1.0476790e+00
  -1.0455645e+00
  -1.0455645e+00
  -1.0476790e+00
  -1.0476790e+00
  -1.0455645e+00
  -1.0476790e+00
  -1.0476790e+00
  -1.0455645e+00
  -1.0455645e+00
  -1.0476790e+00
  -1.0455645e+00
  -1.0455645e+00
  -1.0476790e+00
  -1.0434500e+00
  -1.0476790e+00
  -1.0476790e+00
  -1.0497935e+00
  -1.0455645e+00
  -1.0455645e+00
  -1.0476790e+00
  -1.0455645e+00
  -1.0455645e+00
  -1.0476790e+00
  -1.0434500e+00
  -1.0455645e+00
  -1.0476790e+00
  -1.0497935e+00
  -1.0455645e+00
  -1.0476790e+00
  -1.0476790e+00
  -1.0455645e+00
  -1.0455645e+00
  -1.0476790e+00
  -1.0455645e+00
  -1.0455645e+00
  -1.0476790e+00
  -1.0434500e+00
  -1.0476790e+00
  -1.0476790e+00
  -1.0497935e+00
  -1.0455645e+00
  -1.0476790e+00
  -1.0476790e+00
  -1.0455645e+00
  -1.0476790e+00
  -1.0476790e+00
  -1.0434500e+00
  -1.0455645e+00
  -1.0476790e+00
  -1.0455645e+00
  -1.0455645e+00
  -1.0476790e+00
  -1.0497935e+00
  -1.0455645e+00
  -1.0476790e+00
  -1.0476790e+00
  -1.0455645e+00
  -1.0455645e+00
  -1.0476790e+00
  -1.0455645e+00
  -1.0476790e+00
  -1.0476790e+00
  -1.0455645e+00
  -1.0455645e+00
  -1.0455645e+00
  -1.0497935e+00
  -1.0455645e+00
  -1.0476790e+00
  -1.0476790e+00
  -1.0455645e+00
  -1.0455645e+00
  -1.0476790e+00
  -1.0455645e+00
  -1.0455645e+00
  -1.0476790e+00
  -1.0434500e+00
  -1.0455645e+00
  -1.0455645e+00
  -1.0497935e+00
  -1.0455645e+00
  -1.0476790e+00
  -1.0476790e+00
  -1.0455645e+00
  -1.0455645e+00
  -1.0476790e+00
  -1.0434500e+00
  -1.0455645e+00
  -1.0476790e+00
  -1.0519080e+00
  -1.0476790e+00
  -1.0476790e+00
  -1.0497935e+00
  -1.0455645e+00
  -1.0455645e+00
  -1.0476790e+00
  -1.0455645e+00
  -1.0455645e+00
  -1.0476790e+00
  -1.0455645e+00
  -1.0455645e+00
  -1.0476790e+00
  -1.0497935e+00
  -1.0455645e+00
  -1.0476790e+00
  -1.0497935e+00
  -1.0476790e+00
  -1.0455645e+00
  -1.0476790e+00
  -1.0455645e+00
  -1.0455645e+00
  -1.0476790e+00
  -1.0455645e+00
  -1.0455645e+00
  -1.0476790e+00
  -1.0497935e+00
  -1.0455645e+00
  -1.0455645e+00
  -1.0476790e+00
  -1.0455645e+00
  -1.0455645e+00
  -1.0476790e+00
  -1.0455645e+00
  -1.0455645e+00
  -1.0476790e+00
  -1.0455645e+00
  -1.0455645e+00
  -1.0476790e+00
  -1.0476790e+00
  -1.0455645e+00
  -1.0476790e+00
  -1.0476790e+00
  -1.0455645e+00
  -1.0455645e+00
  -1.0476790e+00
  -1.0434500e+00
  -1.0455645e+00
  -1.0476790e+00
  -1.0455645e+00
  -1.0455645e+00
  -1.0476790e+00
  -1.0497935e+00
  -1.0455645e+00
  -1.0476790e+00
  -1.0476790e+00
  -1.0455645e+00
  -1.0455645e+00
  -1.0476790e+00
  -1.0455645e+00
  -1.0476790e+00
  -1.0476790e+00
  -1.0497935e+00
  -1.0455645e+00
  -1.0476790e+00
  -1.0476790e+00
  -1.0434500e+00
  -1.0455645e+00
  -1.0476790e+00
  -1.0434500e+00
  -1.0476790e+00
  -1.0476790e+00
  -1.0455645e+00
  -1.0476790e+00
  -1.0476790e+00
  -1.0497935e+00
  -1.0455645e+00
  -1.0476790e+00
  -1.0476790e+00
  -1.0455645e+00
  -1.0476790e+00
  -1.0476790e+00
  -1.0434500e+00
  -1.0455645e+00
  -1.0476790e+00
  -1.0455645e+00
  -1.0455645e+00
  -1.0476790e+00
  -1.0497935e+00
  -1.0455645e+00
  -1.0455645e+00
  -1.0497935e+00
  -1.0455645e+00
  -1.0455645e+00
  -1.0476790e+00
  -1.0455645e+00
  -1.0455645e+00
  -1.0476790e+00
  -1.0455645e+00
  -1.0455645e+00
  -1.0476790e+00
  -1.0476790e+00
  -1.0455645e+00
  -1.0455645e+00
  -1.0476790e+00
  -1.0455645e+00
  -1.0455645e+00
  -1.0476790e+00
  -1.0455645e+00
  -1.0455645e+00
  -1.0476790e+00
  -1.0455645e+00
  -1.0455645e+00
  -1.0476790e+00
  -1.0497935e+00
  -1.0455645e+00
  -1.0476790e+00
  -1.0497935e+00
  -1.0455645e+00
  -1.0455645e+00
  -1.0476790e+00
  -1.0455645e+00
  -1.0455645e+00
  -1.0476790e+00
  -1.0476790e+00
  -1.0455645e+00
  -1.0455645e+00
  -1.0476790e+00
  -1.0455645e+00
  -1.0476790e+00
  -1.0476790e+00
  -1.0455645e+00
  -1.0476790e+00
  -1.0476790e+00
  -1.0455645e+00
  -1.0455645e+00
  -1.0455645e+00
  -1.0476790e+00
  -1.0455645e+00
  -1.0476790e+00
  -1.0476790e+00
  -1.0455645e+00
  -1.0455645e+00
  -1.0476790e+00
  -1.0455645e+00
  -1.0455645e+00
  -1.0476790e+00
  -1.0455645e+00
  -1.0455645e+00
  -1.0476790e+00
  -1.0497935e+00
  -1.0455645e+00
  -1.0476790e+00
  -1.0497935e+00
  -1.0455645e+00
  -1.0455645e+00
  -1.0476790e+00
  -1.0455645e+00
  -1.0455645e+00
  -1.0476790e+00
  -1.0455645e+00
  -1.0455645e+00
  -1.0476790e+00
  -1.0497935e+00
  -1.0455645e+00
  -1.0476790e+00
  -1.0476790e+00
  -1.0455645e+00
  -1.0476790e+00
  -1.0497935e+00
  -1.0455645e+00
  -1.0455645e+00
  -1.0476790e+00
  -1.0455645e+00
  -1.0455645e+00
  -1.0476790e+00
  -1.0476790e+00
  -1.0455645e+00
  -1.0455645e+00
  -1.0476790e+00
  -1.0455645e+00
  -1.0476790e+00
  -1.0476790e+00
  -1.0455645e+00
  -1.0455645e+00
  -1.0476790e+00
  -1.0434500e+00
  -1.0455645e+00
  -1.0476790e+00
  -1.0476790e+00
  -1.0455645e+00
  -1.0455645e+00
  -1.0476790e+00
  -1.0455645e+00
  -1.0476790e+00
  -1.0476790e+00
  -1.0455645e+00
  -1.0455645e+00
  -1.0476790e+00
  -1.0519080e+00
  -1.0455645e+00
  -1.0476790e+00
  -1.0476790e+00
  -1.0455645e+00
  -1.0476790e+00
  -1.0476790e+00
  -1.0455645e+00
  -1.0455645e+00
  -1.0476790e+00
  -1.0455645e+00
  -1.0455645e+00
  -1.0476790e+00
  -1.0476790e+00
  -1.0455645e+00
  -1.0476790e+00
  -1.0476790e+00
  -1.0455645e+00
  -1.0455645e+00
  -1.0476790e+00
  -1.0455645e+00
  -1.0455645e+00
  -1.0476790e+00
  -1.0434500e+00
  -1.0455645e+00
  -1.0476790e+00
  -1.0497935e+00
  -1.0455645e+00
  -1.0455645e+00
  -1.0476790e+00
  -1.0455645e+00
  -1.0476790e+00
  -1.0476790e+00
  -1.0455645e+00
  -1.0455645e+00
  -1.0476790e+00
  -1.0434500e+00
  -1.0455645e+00
  -1.0476790e+00
  -1.0476790e+00
  -1.0455645e+00
  -1.0476790e+00
  -1.0476790e+00
  -1.0455645e+00
  -1.0476790e+00
  -1.0476790e+00
  -1.0455645e+00
  -1.0455645e+00
  -1.0476790e+00
  -1.0434500e+00
  -1.0455645e+00
  -1.0455645e+00
  -1.0476790e+00
  -1.0455645e+00
  -1.0476790e+00
  -1.0476790e+00
  -1.0455645e+00
  -1.0455645e+00
  -1.0476790e+00
  -1.0455645e+00
  -1.0455645e+00
  -1.0476790e+00
  -1.0455645e+00
  -1.0455645e+00
  -1.0476790e+00
  -1.0476790e+00
  -1.0455645e+00
  -1.0455645e+00
  -1.0476790e+00
  -1.0455645e+00
  -1.0455645e+00
  -1.0476790e+00
  -1.0455645e+00
  -1.0455645e+00
  -1.0455645e+00
  -1.0540224e+00
  -1.0455645e+00
  -1.0476790e+00
  -1.0476790e+00
  -1.0455645e+00
  -1.0476790e+00
  -1.0476790e+00
  -1.0455645e+00
  -1.0455645e+00
  -1.0476790e+00
  -1.0455645e+00
  -1.0455645e+00
  -1.0455645e+00
  -1.0476790e+00
  -1.0455645e+00
  -1.0476790e+00
  -1.0476790e+00
  -1.0455645e+00
  -1.0455645e+00
  -1.0476790e+00
  -1.0434500e+00
  -1.0455645e+00
  -1.0476790e+00
  -1.0455645e+00
  -1.0455645e+00
  -1.0476790e+00
  -1.0497935e+00
  -1.0455645e+00
  -1.0476790e+00
  -1.0476790e+00
  -1.0455645e+00
  -1.0455645e+00
  -1.0497935e+00
  -1.0455645e+00
  -1.0476790e+00
  -1.0476790e+00
  -1.0434500e+00
  -1.0455645e+00
  -1.0476790e+00
  -1.0476790e+00
  -1.0455645e+00
  -1.0455645e+00
  -1.0476790e+00
  -1.0455645e+00
  -1.0455645e+00
  -1.0476790e+00
  -1.0434500e+00
  -1.0455645e+00
  -1.0476790e+00
  -1.0455645e+00
  -1.0455645e+00
  -1.0476790e+00
  -1.0497935e+00
  -1.0455645e+00
  -1.0476790e+00
  -1.0476790e+00
  -1.0455645e+00
  -1.0455645e+00
  -1.0476790e+00
  -1.0455645e+00
  -1.0455645e+00
  -1.0476790e+00
  -1.0455645e+00
  -1.0455645e+00
  -1.0476790e+00
  -1.0497935e+00
  -1.0455645e+00
  -1.0476790e+00
  -1.0476790e+00
  -1.0455645e+00
  -1.0455645e+00
  -1.0476790e+00
  -1.0455645e+00
  -1.0476790e+00
  -1.0476790e+00
  -1.0519080e+00
  -1.0455645e+00
  -1.0476790e+00
  -1.0476790e+00
  -1.0455645e+00
  -1.0455645e+00
  -1.0476790e+00
  -1.0455645e+00
  -1.0455645e+00
  -1.0476790e+00
  -1.0455645e+00
  -1.0455645e+00
  -1.0476790e+00
  -1.0497935e+00
  -1.0455645e+00
  -1.0476790e+00
  -1.0476790e+00
  -1.0455645e+00
  -1.0455645e+00
  -1.0476790e+00
  -1.0455645e+00
  -1.0476790e+00
  -1.0476790e+00
  -1.0455645e+00
  -1.0455645e+00
  -1.0476790e+00
  -1.0476790e+00
  -1.0455645e+00
  -1.0476790e+00
  -1.0476790e+00
  -1.0455645e+00
  -1.0476790e+00
  -1.0476790e+00
  -1.0434500e+00
  -1.0455645e+00
  -1.0476790e+00
  -1.0455645e+00
  -1.0455645e+00
  -1.0476790e+00
  -1.0476790e+00
  -1.0455645e+00
  -1.0476790e+00
  -1.0476790e+00
  -1.0455645e+00
  -1.0455645e+00
  -1.0476790e+00
  -1.0455645e+00
  -1.0455645e+00
  -1.0476790e+00
  -1.0434500e+00
  -1.0455645e+00
  -1.0476790e+00
  -1.0497935e+00
  -1.0455645e+00
  -1.0455645e+00
  -1.0476790e+00
  -1.0455645e+00
  -1.0476790e+00
  -1.0476790e+00
  -1.0455645e+00
  -1.0455645e+00
  -1.0476790e+00
  -1.0434500e+00
  -1.0455645e+00
  -1.0455645e+00
  -1.0476790e+00
  -1.0455645e+00
  -1.0476790e+00
  -1.0476790e+00
  -1.0455645e+00
  -1.0455645e+00
  -1.0455645e+00
  -1.0455645e+00
  -1.0455645e+00
  -1.0476790e+00
  -1.0540224e+00
  -1.0455645e+00
  -1.0476790e+00
  -1.0476790e+00
  -1.0455645e+00
  -1.0476790e+00
  -1.0476790e+00
  -1.0455645e+00
  -1.0476790e+00
  -1.0476790e+00
  -1.0455645e+00
  -1.0476790e+00
  -1.0476790e+00
  -1.0476790e+00
  -1.0455645e+00
  -1.0476790e+00
  -1.0476790e+00
  -1.0455645e+00
  -1.0455645e+00
  -1.0476790e+00
  -1.0455645e+00
  -1.0455645e+00
  -1.0476790e+00
  -1.0434500e+00
  -1.0455645e+00
  -1.0476790e+00
  -1.0476790e+00
  -1.0455645e+00
  -1.0476790e+00
  -1.0476790e+00
  -1.0455645e+00
  -1.0455645e+00
  -1.0476790e+00
  -1.0455645e+00
  -1.0455645e+00
  -1.0476790e+00
  -1.0434500e+00
  -1.0455645e+00
  -1.0476790e+00
  -1.0476790e+00
  -1.0455645e+00
  -1.0476790e+00
  -1.0476790e+00
  -1.0455645e+00
  -1.0455645e+00
  -1.0476790e+00
  -1.0455645e+00
  -1.0455645e+00
  -1.0476790e+00
  -1.0434500e+00
  -1.0476790e+00
  -1.0476790e+00
  -1.0497935e+00
  -1.0455645e+00
  -1.0476790e+00
  -1.0476790e+00
  -1.0455645e+00
  -1.0455645e+00
  -1.0497935e+00
  -1.0455645e+00
  -1.0455645e+00
  -1.0476790e+00
  -1.0455645e+00
  -1.0455645e+00
  -1.0455645e+00
  -1.0476790e+00
  -1.0455645e+00
  -1.0476790e+00
  -1.0476790e+00
  -1.0455645e+00
  -1.0455645e+00
  -1.0476790e+00
  -1.0455645e+00
  -1.0455645e+00
  -1.0476790e+00
  -1.0455645e+00
  -1.0455645e+00
  -1.0476790e+00
  -1.0476790e+00
  -1.0455645e+00
  -1.0455645e+00
  -1.0476790e+00
  -1.0455645e+00
  -1.0455645e+00
  -1.0476790e+00
  -1.0434500e+00
  -1.0455645e+00
  -1.0476790e+00
  -1.0497935e+00
  -1.0455645e+00
  -1.0476790e+00
  -1.0476790e+00
  -1.0455645e+00
  -1.0455645e+00
  -1.0476790e+00
  -1.0455645e+00
  -1.0455645e+00
  -1.0476790e+00
  -1.0434500e+00
  -1.0455645e+00
  -1.0476790e+00
  -1.0497935e+00
  -1.0455645e+00
  -1.0455645e+00
  -1.0476790e+00
  -1.0455645e+00
  -1.0476790e+00
  -1.0476790e+00
  -1.0455645e+00
  -1.0455645e+00
  -1.0476790e+00
  -1.0455645e+00
  -1.0455645e+00
  -1.0476790e+00
  -1.0497935e+00
  -1.0455645e+00
  -1.0476790e+00
  -1.0476790e+00
  -1.0455645e+00
  -1.0476790e+00
  -1.0476790e+00
  -1.0434500e+00
  -1.0455645e+00
  -1.0476790e+00
  -1.0455645e+00
  -1.0455645e+00
  -1.0476790e+00
  -1.0497935e+00
  -1.0455645e+00
  -1.0455645e+00
  -1.0476790e+00
  -1.0455645e+00
  -1.0455645e+00
  -1.0476790e+00
  -1.0455645e+00
  -1.0455645e+00
  -1.0476790e+00
  -1.0434500e+00
  -1.0455645e+00
  -1.0476790e+00
  -1.0497935e+00
  -1.0455645e+00
  -1.0476790e+00
  -1.0476790e+00
  -1.0455645e+00
  -1.0455645e+00
  -1.0476790e+00
  -1.0455645e+00
  -1.0455645e+00
  -1.0476790e+00
  -1.0497935e+00
  -1.0455645e+00
  -1.0476790e+00
  -1.0476790e+00
  -1.0455645e+00
  -1.0476790e+00
  -1.0476790e+00
  -1.0455645e+00
  -1.0455645e+00
  -1.0476790e+00
  -1.0455645e+00
  -1.0455645e+00
  -1.0476790e+00
  -1.0540224e+00
  -1.0455645e+00
  -1.0476790e+00
  -1.0476790e+00
  -1.0455645e+00
  -1.0455645e+00
  -1.0476790e+00
  -1.0455645e+00
  -1.0455645e+00
  -1.0476790e+00
  -1.0434500e+00
  -1.0455645e+00
  -1.0476790e+00
  -1.0540224e+00
  -1.0455645e+00
  -1.0476790e+00
  -1.0476790e+00
  -1.0455645e+00
  -1.0455645e+00
  -1.0476790e+00
  -1.0455645e+00
  -1.0455645e+00
  -1.0476790e+00
  -1.0455645e+00
  -1.0455645e+00
  -1.0476790e+00
  -1.0497935e+00
  -1.0455645e+00
  -1.0476790e+00
  -1.0476790e+00
  -1.0434500e+00
  -1.0455645e+00
  -1.0476790e+00
  -1.0455645e+00
  -1.0476790e+00
  -1.0455645e+00
  -1.0455645e+00
  -1.0455645e+00
  -1.0476790e+00
  -1.0497935e+00
  -1.0455645e+00
  -1.0476790e+00
  -1.0476790e+00
  -1.0455645e+00
  -1.0455645e+00
  -1.0476790e+00
  -1.0455645e+00
  -1.0476790e+00
  -1.0476790e+00
  -1.0434500e+00
  -1.0455645e+00
  -1.0476790e+00
  -1.0497935e+00
  -1.0455645e+00
  -1.0455645e+00
  -1.0497935e+00
  -1.0455645e+00
  -1.0476790e+00
  -1.0497935e+00
  -1.0455645e+00
  -1.0455645e+00
  -1.0476790e+00
  -1.0455645e+00
  -1.0455645e+00
  -1.0476790e+00
  -1.0476790e+00
  -1.0455645e+00
  -1.0455645e+00
  -1.0476790e+00
  -1.0455645e+00
  -1.0455645e+00
  -1.0476790e+00
  -1.0455645e+00
  -1.0476790e+00
  -1.0476790e+00
  -1.0455645e+00
  -1.0455645e+00
  -1.0476790e+00
  -1.0497935e+00
  -1.0455645e+00
  -1.0476790e+00
  -1.0476790e+00
  -1.0455645e+00
  -1.0476790e+00
  -1.0476790e+00
  -1.0455645e+00
  -1.0476790e+00
  -1.0476790e+00
  -1.0497935e+00
  -1.0455645e+00
  -1.0476790e+00
  -1.0476790e+00
  -1.0455645e+00
  -1.0476790e+00
  -1.0476790e+00
  -1.0455645e+00
  -1.0455645e+00
  -1.0476790e+00
  -1.0434500e+00
  -1.0455645e+00
  -1.0476790e+00
  -1.0476790e+00
  -1.0455645e+00
  -1.0476790e+00
  -1.0476790e+00
  -1.0455645e+00
  -1.0455645e+00
  -1.0476790e+00
  -1.0455645e+00
  -1.0455645e+00
  -1.0476790e+00
  -1.0434500e+00
  -1.0455645e+00
  -1.0476790e+00
  -1.0497935e+00
  -1.0455645e+00
  -1.0476790e+00
  -1.0476790e+00
  -1.0455645e+00
  -1.0455645e+00
  -1.0476790e+00
  -1.0434500e+00
  -1.0455645e+00
  -1.0476790e+00
  -1.0455645e+00
  -1.0455645e+00
  -1.0455645e+00
  -1.0497935e+00
  -1.0455645e+00
  -1.0476790e+00
  -1.0476790e+00
  -1.0455645e+00
  -1.0455645e+00
  -1.0476790e+00
  -1.0455645e+00
  -1.0455645e+00
  -1.0476790e+00
  -1.0455645e+00
  -1.0455645e+00
  -1.0476790e+00
  -1.0497935e+00
  -1.0455645e+00
  -1.0476790e+00
  -1.0476790e+00
  -1.0434500e+00
  -1.0455645e+00
  -1.0476790e+00
  -1.0455645e+00
  -1.0455645e+00
  -1.0476790e+00
  -1.0455645e+00
  -1.0455645e+00
  -1.0476790e+00
  -1.0497935e+00
  -1.0455645e+00
  -1.0476790e+00
  -1.0476790e+00
  -1.0455645e+00
  -1.0476790e+00
  -1.0476790e+00
  -1.0455645e+00
  -1.0476790e+00
  -1.0476790e+00
  -1.0455645e+00
  -1.0455645e+00
  -1.0476790e+00
  -1.0476790e+00
  -1.0455645e+00
  -1.0476790e+00
  -1.0476790e+00
  -1.0455645e+00
  -1.0476790e+00
  -1.0476790e+00
  -1.0455645e+00
  -1.0455645e+00
  -1.0476790e+00
  -1.0455645e+00
  -1.0455645e+00
  -1.0476790e+00
  -1.0476790e+00
  -1.0455645e+00
  -1.0455645e+00
  -1.0497935e+00
  -1.0455645e+00
  -1.0455645e+00
  -1.0476790e+00
  -1.0455645e+00
  -1.0455645e+00
  -1.0476790e+00
  -1.0434500e+00
  -1.0455645e+00
  -1.0455645e+00
  -1.0497935e+00
  -1.0455645e+00
  -1.0476790e+00
  -1.0476790e+00
  -1.0455645e+00
  -1.0476790e+00
  -1.0476790e+00
  -1.0434500e+00
  -1.0455645e+00
  -1.0476790e+00
  -1.0497935e+00
  -1.0455645e+00
  -1.0476790e+00
  -1.0476790e+00
  -1.0455645e+00
  -1.0476790e+00
  -1.0476790e+00
  -1.0455645e+00
  -1.0455645e+00
  -1.0476790e+00
  -1.0455645e+00
  -1.0455645e+00
  -1.0476790e+00
  -1.0519080e+00
  -1.0476790e+00
  -1.0476790e+00
  -1.0476790e+00
  -1.0455645e+00
  -1.0476790e+00
  -1.0476790e+00
  -1.0455645e+00
  -1.0455645e+00
  -1.0455645e+00
  -1.0455645e+00
  -1.0476790e+00
  -1.0476790e+00
  -1.0497935e+00
  -1.0476790e+00
  -1.0455645e+00
  -1.0476790e+00
  -1.0455645e+00
  -1.0455645e+00
  -1.0476790e+00
  -1.0455645e+00
  -1.0455645e+00
  -1.0476790e+00
  -1.0455645e+00
  -1.0455645e+00
  -1.0476790e+00
  -1.0497935e+00
  -1.0455645e+00
  -1.0476790e+00
  -1.0476790e+00
  -1.0455645e+00
  -1.0455645e+00
  -1.0476790e+00
  -1.0455645e+00
  -1.0455645e+00
  -1.0476790e+00
  -1.0455645e+00
  -1.0455645e+00
  -1.0476790e+00
  -1.0497935e+00
  -1.0455645e+00
  -1.0476790e+00
  -1.0497935e+00
  -1.0455645e+00
  -1.0455645e+00
  -1.0476790e+00
  -1.0455645e+00
  -1.0455645e+00
  -1.0476790e+00
  -1.0455645e+00
  -1.0455645e+00
  -1.0476790e+00
  -1.0476790e+00
  -1.0455645e+00
  -1.0476790e+00
  -1.0476790e+00
  -1.0455645e+00
  -1.0476790e+00
  -1.0476790e+00
  -1.0455645e+00
  -1.0455645e+00
  -1.0476790e+00
  -1.0455645e+00
  -1.0455645e+00
  -1.0455645e+00
  -1.0497935e+00
  -1.0455645e+00
  -1.0455645e+00
  -1.0476790e+00
  -1.0455645e+00
  -1.0455645e+00
  -1.0476790e+00
  -1.0455645e+00
  -1.0455645e+00
  -1.0476790e+00
  -1.0455645e+00
  -1.0455645e+00
  -1.0476790e+00
  -1.0476790e+00
  -1.0455645e+00
  -1.0455645e+00
  -1.0476790e+00
  -1.0455645e+00
  -1.0455645e+00
  -1.0476790e+00
  -1.0455645e+00
  -1.0455645e+00
  -1.0476790e+00
  -1.0476790e+00
  -1.0455645e+00
  -1.0476790e+00
  -1.0476790e+00
  -1.0455645e+00
  -1.0476790e+00
  -1.0497935e+00
  -1.0455645e+00
  -1.0455645e+00
  -1.0476790e+00
  -1.0455645e+00
  -1.0455645e+00
  -1.0476790e+00
  -1.0455645e+00
  -1.0455645e+00
  -1.0476790e+00
  -1.0497935e+00
  -1.0455645e+00
  -1.0476790e+00
  -1.0476790e+00
  -1.0455645e+00
  -1.0455645e+00
  -1.0476790e+00
  -1.0455645e+00
  -1.0455645e+00
  -1.0476790e+00
  -1.0476790e+00
  -1.0455645e+00
  -1.0455645e+00
  -1.0476790e+00
  -1.0455645e+00
  -1.0455645e+00
  -1.0476790e+00
  -1.0455645e+00
  -1.0455645e+00
  -1.0476790e+00
  -1.0455645e+00
  -1.0455645e+00
  -1.0476790e+00
  -1.0476790e+00
  -1.0455645e+00
  -1.0476790e+00
  -1.0476790e+00
  -1.0455645e+00
  -1.0455645e+00
  -1.0476790e+00
  -1.0434500e+00
  -1.0455645e+00
  -1.0497935e+00
  -1.0455645e+00
  -1.0455645e+00
  -1.0497935e+00
  -1.0476790e+00
  -1.0455645e+00
  -1.0476790e+00
  -1.0476790e+00
  -1.0455645e+00
  -1.0476790e+00
  -1.0476790e+00
  -1.0455645e+00
  -1.0455645e+00
  -1.0476790e+00
  -1.0455645e+00
  -1.0455645e+00
  -1.0476790e+00
  -1.0476790e+00
  -1.0455645e+00
  -1.0455645e+00
  -1.0497935e+00
  -1.0434500e+00
  -1.0476790e+00
  -1.0497935e+00
  -1.0455645e+00
  -1.0455645e+00
  -1.0476790e+00
  -1.0434500e+00
  -1.0455645e+00
  -1.0476790e+00
  -1.0476790e+00
  -1.0455645e+00
  -1.0476790e+00
  -1.0497935e+00
  -1.0455645e+00
  -1.0476790e+00
  -1.0476790e+00
  -1.0455645e+00
  -1.0476790e+00
  -1.0476790e+00
  -1.0434500e+00
  -1.0455645e+00
  -1.0476790e+00
  -1.0476790e+00
  -1.0455645e+00
  -1.0476790e+00
  -1.0476790e+00
  -1.0455645e+00
  -1.0455645e+00
  -1.0476790e+00
  -1.0455645e+00
  -1.0455645e+00
  -1.0476790e+00
  -1.0540224e+00
  -1.0455645e+00
  -1.0476790e+00
  -1.0476790e+00
  -1.0455645e+00
  -1.0455645e+00
  -1.0476790e+00
  -1.0455645e+00
  -1.0476790e+00
  -1.0455645e+00
  -1.0434500e+00
  -1.0455645e+00
  -1.0497935e+00
  -1.0455645e+00
  -1.0455645e+00
  -1.0476790e+00
  -1.0476790e+00
  -1.0455645e+00
  -1.0476790e+00
  -1.0476790e+00
  -1.0455645e+00
  -1.0455645e+00
  -1.0476790e+00
  -1.0434500e+00
  -1.0455645e+00
  -1.0476790e+00
  -1.0476790e+00
  -1.0455645e+00
  -1.0476790e+00
  -1.0497935e+00
  -1.0455645e+00
  -1.0476790e+00
  -1.0476790e+00
  -1.0455645e+00
  -1.0476790e+00
  -1.0476790e+00
  -1.0455645e+00
  -1.0455645e+00
  -1.0476790e+00
  -1.0497935e+00
  -1.0455645e+00
  -1.0455645e+00
  -1.0476790e+00
  -1.0455645e+00
  -1.0455645e+00
  -1.0476790e+00
  -1.0434500e+00
  -1.0455645e+00
  -1.0476790e+00
  -1.0455645e+00
  -1.0455645e+00
  -1.0476790e+00
  -1.0476790e+00
  -1.0455645e+00
  -1.0476790e+00
  -1.0497935e+00
  -1.0455645e+00
  -1.0476790e+00
  -1.0476790e+00
  -1.0455645e+00
  -1.0476790e+00
  -1.0455645e+00
  -1.0455645e+00
  -1.0455645e+00
  -1.0476790e+00
  -1.0497935e+00
  -1.0455645e+00
  -1.0455645e+00
  -1.0476790e+00
  -1.0455645e+00
  -1.0476790e+00
  -1.0455645e+00
  -1.0455645e+00
  -1.0455645e+00
  -1.0476790e+00
  -1.0455645e+00
  -1.0455645e+00
  -1.0476790e+00
  -1.0476790e+00
  -1.0455645e+00
  -1.0476790e+00
  -1.0476790e+00
  -1.0434500e+00
  -1.0455645e+00
  -1.0476790e+00
  -1.0455645e+00
  -1.0455645e+00
  -1.0476790e+00
  -1.0455645e+00
  -1.0455645e+00
  -1.0476790e+00
  -1.0476790e+00
  -1.0455645e+00
  -1.0476790e+00
  -1.0476790e+00
  -1.0455645e+00
  -1.0476790e+00
  -1.0476790e+00
  -1.0455645e+00
  -1.0455645e+00
  -1.0476790e+00
  -1.0476790e+00
  -1.0455645e+00
  -1.0476790e+00
  -1.0476790e+00
  -1.0455645e+00
  -1.0476790e+00
  -1.0476790e+00
  -1.0455645e+00
  -1.0455645e+00
  -1.0476790e+00
  -1.0455645e+00
  -1.0455645e+00
  -1.0476790e+00
  -1.0540224e+00
  -1.0455645e+00
  -1.0476790e+00
  -1.0476790e+00
  -1.0455645e+00
  -1.0455645e+00
  -1.0476790e+00
  -1.0455645e+00
  -1.0455645e+00
  -1.0476790e+00
  -1.0434500e+00
  -1.0455645e+00
  -1.0476790e+00
  -1.0497935e+00
  -1.0455645e+00
  -1.0476790e+00
  -1.0476790e+00
  -1.0455645e+00
  -1.0455645e+00
  -1.0476790e+00
  -1.0455645e+00
  -1.0455645e+00
  -1.0476790e+00
  -1.0455645e+00
  -1.0455645e+00
  -1.0476790e+00
  -1.0476790e+00
  -1.0455645e+00
  -1.0476790e+00
  -1.0476790e+00
  -1.0455645e+00
  -1.0455645e+00
  -1.0476790e+00
  -1.0455645e+00
  -1.0455645e+00
  -1.0476790e+00
  -1.0455645e+00
  -1.0455645e+00
  -1.0476790e+00
  -1.0497935e+00
  -1.0455645e+00
  -1.0455645e+00
  -1.0476790e+00
  -1.0455645e+00
  -1.0476790e+00
  -1.0476790e+00
  -1.0455645e+00
  -1.0455645e+00
  -1.0476790e+00
  -1.0434500e+00
  -1.0455645e+00
  -1.0476790e+00
  -1.0476790e+00
  -1.0455645e+00
  -1.0476790e+00
  -1.0476790e+00
  -1.0455645e+00
  -1.0455645e+00
  -1.0476790e+00
  -1.0455645e+00
  -1.0455645e+00
  -1.0476790e+00
  -1.0497935e+00
  -1.0455645e+00
  -1.0455645e+00
  -1.0497935e+00
  -1.0455645e+00
  -1.0455645e+00
  -1.0476790e+00
  -1.0455645e+00
  -1.0455645e+00
  -1.0476790e+00
  -1.0455645e+00
  -1.0455645e+00
  -1.0455645e+00
  -1.0434500e+00
  -1.0455645e+00
  -1.0476790e+00
  -1.0476790e+00
  -1.0434500e+00
  -1.0455645e+00
  -1.0476790e+00
